2,8,1
Connections s,l,d,l,w,t
0,0,2,1,0.690034,-50
0,0,3,1,0.759691,-50
0,0,4,1,0.983081,-50
0,0,5,1,0.313983,50
0,0,6,1,1.01647,50
1,0,2,1,0.259247,50
1,0,3,1,0.271061,-50
1,0,4,1,0.130394,50
1,0,5,1,0.743021,-50
1,0,6,1,0.823306,50
2,1,2,1,0.837274,50
2,1,3,1,1.0216,-50
2,1,4,1,0.93118,-50
2,1,5,1,0.78254,-50
2,1,6,1,0.664787,50
2,1,7,2,0.799701,50
3,1,2,1,0.218692,-50
3,1,3,1,0.568259,50
3,1,4,1,1.01504,50
3,1,5,1,0.0930363,50
3,1,6,1,0.48921,-50
3,1,7,2,0.38323,-50
4,1,2,1,0.159584,-50
4,1,3,1,0.985743,50
4,1,4,1,0.47606,-50
4,1,5,1,0.034737,-50
4,1,6,1,0.747981,-50
4,1,7,2,0.603018,-50
5,1,2,1,0.148699,50
5,1,3,1,0.62848,-50
5,1,4,1,0.794389,-50
5,1,5,1,0.0590721,50
5,1,6,1,0.670972,50
5,1,7,2,0.372674,-50
6,1,2,1,0.969892,-50
6,1,3,1,0.411705,50
6,1,4,1,0.797343,50
6,1,5,1,0.0726057,-50
6,1,6,1,0.409867,50
6,1,7,2,0.142564,50
0,0,8,1,0.930089,50
1,0,8,1,0.221243,50
8,1,2,1,0.14157,-50
8,1,3,1,0.636968,-50
3,1,8,1,0.986641,50
4,1,8,1,0.391409,50
8,1,5,1,0.373266,50
5,1,8,1,0.455182,50
8,1,6,1,0.992452,50
6,1,8,1,0.69652,-50
8,1,7,2,1.15087,50
8,1,8,1,0.0108141,-50
2,1,8,1,0.308894,50
0,0,9,1,-0.0715317,50
1,0,9,1,0.473068,50
9,1,2,1,0.142491,-50
2,1,9,1,0.589738,50
9,1,3,1,0.382237,-50
3,1,9,1,0.890737,50
9,1,4,1,0.363011,50
9,1,5,1,0.10651,-50
5,1,9,1,0.110708,-50
9,1,6,1,0.948819,50
6,1,9,1,0.971124,-50
9,1,7,2,0.444192,50
9,1,8,1,0.586683,50
8,1,9,1,0.193784,50
9,1,9,1,0.642679,50
4,1,9,1,0.0530626,-50
0,0,10,1,0.956457,50
10,1,3,1,0.547679,50
3,1,10,1,0.936885,-50
10,1,4,1,0.0284636,-50
4,1,10,1,0.182012,-50
10,1,5,1,0.685305,-50
5,1,10,1,0.311938,-50
10,1,7,2,0.315412,50
10,1,8,1,0.410315,50
8,1,10,1,0.532798,50
9,1,10,1,0.134346,-50
10,1,2,1,0.712371,-50
10,1,6,1,0.68667,-50
