0l0 1l0 3l1 4l1 5l1 7l2 
-45.25 -45.25 -55.25 -55.25 -55.25 -55.25 
-25.8475 -25.8475 -55.6475 -55.6475 -55.6475 -55.6475 
-55 -55 -56.263 -56.263 -56.263 -56.263 
-50.1982 -50.1982 28.3373 -68.1704 -91.2806 -57.1852 
-41.0982 -41.0982 -55 -69.3331 -60.5965 -58.504 
-19.4047 -19.4047 -28.5279 -46.1837 -95.705 -22.3818 
-55 -55 9.70259 -37.3388 -53.1044 -55 
-53.7964 -53.7964 -55 -25.0944 -84.2532 -59.905 
-50.9581 -50.9581 -33.105 -55 -99.855 -28.4424 
-45.0822 -45.0822 31.1623 -113.621 3.95304 -55 
-31.8054 -31.8054 -55 -15.9206 -55 -63.1971 
7.41047 7.41047 7.21177 -55 -139.639 -4.86209 
-55 -55 -55 -115.974 -55 -55 
-56.1683 -56.1683 -55 -47.8323 -175.115 1.85551 
-56.8911 -56.8911 -41.9767 -22.6027 -55 -55 
-56.9474 -56.9474 -1.07907 -15.1707 -107.544 -39.3849 
-56.1 -56.1 -55 -55 -32.7204 -33.3105 
-54.0102 -54.0102 -0.579449 -94.3905 12.6596 -55 
-49.9434 -49.9434 -55 -64.3029 -55 -70.5099 
-41.846 -41.846 0.160241 -99.2713 -144.914 -16.2096 
-22.5475 -22.5475 -55 -53.1223 -55 -55 
-55 -55 -1.1459 -82.1902 -145.16 -3.02732 
-54.6218 -54.6218 -55 -83.6214 -55 -55 
-53.0738 -53.0738 -2.17122 -97.0056 -145.354 -5.33503 
-49.6202 -49.6202 -55 -53.3506 -55 -55 
-42.3734 -42.3734 -2.9761 -79.0752 -145.506 -7.14659 
-25.0046 -25.0046 -55 -70.8729 -55 -55 
32.7152 32.7152 -3.60792 -96.5252 -145.625 -8.56866 
-55 -55 -55 -52.0108 -55 -55 
-56.9912 -56.9912 -55 -85.7216 -179.814 -9.68498 
-58.8444 -58.8444 -49.6208 -41.8142 -55 -55 
-60.2704 -60.2704 -25.8162 -74.848 -111.233 -48.4442 
-60.99 -60.99 3.40193 -69.7281 -25.8924 -63.9928 
-60.8436 -60.8436 -55 -68.2732 20.1783 -85.4238 
-59.7845 -59.7845 -46.5163 -43.9869 -55 -45.9142 
-57.7389 -57.7389 -16.3335 -80.3097 -113.894 -21.7689 
-54.3871 -54.3871 -55 -68.4411 -20.2897 28.866 
-48.7353 -48.7353 -45.1629 -43.977 7.649 -55 
-37.7047 -37.7047 -56.045 -30.4857 -55 -72.8075 
-9.4123 -9.4123 -31.4019 -39.9304 -115.4 -56.7744 
-55 -55 -11.9415 -21.0794 -16.8704 -71.7395 
-53.8568 -53.8568 -55 34.5632 21.512 -83.1792 
-51.1147 -51.1147 -41.6439 -55 -55 -41.3917 
-45.4298 -45.4298 -55 -165.108 -68.5282 -55 
-32.6714 -32.6714 -42.3387 -55 -115.429 -29.7407 
4.42168 4.42168 -4.68521 -115.395 31.7872 -55 
-55 -55 -55 -11.9098 -55 -69.9041 
-56.0953 -56.0953 -55 -55 -184.476 -15.432 
-56.7153 -56.7153 -2.74382 -93.9214 -55 -55 
-56.634 -56.634 -55 -114.306 -114.893 -40.5016 
-55.5964 -55.5964 -45.6257 8.02394 -51.7479 0.435487 
-53.2039 -53.2039 -57.5577 -55 -57.5308 -55 
-48.5449 -48.5449 -36.297 -117.85 -17.9889 -19.5236 
-38.9679 -38.9679 -28.3455 -5.94579 -55 -55 
-14.6204 -14.6204 -55 -55 -113.981 -43.7348 
-55 -55 0.39968 -95.8046 -5.55246 -55 
-54.9156 -54.9156 -55 -74.2872 -55 -74.5732 
-53.8136 -53.8136 0.928858 -104.938 -148.697 -20.6657 
-51.1267 -51.1267 -55 -41.5838 -55 31.6764 
-45.5304 -45.5304 -0.542536 -57.2028 -148.13 -55 
-32.9785 -32.9785 -55 -62.8025 -55 -74.471 
3.32535 3.32535 -1.69758 -95.3435 -147.685 -20.5698 
-55 -55 -55 -57.8709 -55 32.1737 
-56.1097 -56.1097 -55 -98.6481 -181.431 -55 
-56.7499 -56.7499 -48.2712 -27.0669 -55 -36.5378 
-56.696 -56.696 -21.7884 -29.3948 -112.503 0.755158 
-55.6966 -55.6966 20.9586 10.9372 -23.2903 -55 
-53.3659 -53.3659 -55 -55 29.675 -75.0347 
-48.8299 -48.8299 -4.43014 -92.4383 -55 1.44565 
-39.5671 -39.5671 -55 -115.128 -114.998 -55 
-16.3255 -16.3255 -46.9495 11.8007 -51.5075 -36.7505 
-55 -55 -61.7898 -55 -57.1635 -30.1742 
-54.8531 -54.8531 -55 -127.968 -51.6456 -55 
-53.6569 -53.6569 -44.3325 -55 -89.6353 -36.5289 
-50.8111 -50.8111 -11.5304 -117.605 -20.3605 23.3244 
-44.8834 -44.8834 -55 -6.56293 -55 -55 
-31.4082 -31.4082 0.346835 -55 -145.879 -7.62467 
8.71232 8.71232 -55 -119.022 -55 -55 
-55 -55 -0.999423 -29.2265 -145.918 -8.94395 
-56.2722 -56.2722 -55 -5.10225 -55 -55 
-57.1407 -57.1407 -2.05624 -55 -145.949 -9.97959 
-57.3879 -57.3879 -55 -120.04 -55 -55 
-56.7956 -56.7956 -2.88583 -26.5183 -145.972 -10.7926 
-55.092 -55.092 -55 15.2949 -55 -55 
-51.7402 -51.7402 -3.53707 -55 -145.991 -11.4308 
-45.316 -45.316 -55 -121.257 -55 -55 
-31.2219 -31.2219 -4.04829 -23.1676 -146.006 -11.9317 
10.4729 10.4729 -55 27.7842 -55 -55 
-55 -55 -4.4496 -55 -146.018 -12.325 
-55.4215 -55.4215 -55 -133.404 -55 -55 
-55.0716 -55.0716 -4.76462 26.6401 -146.027 -12.6337 
-53.5928 -53.5928 -55 -55 -55 -55 
-50.323 -50.323 -55 -149.306 -97.782 -55 
-43.5904 -43.5904 -50.438 -55 -92.3362 -44.4017 
-27.9331 -27.9331 -30.5135 -121.951 -17.2332 -5.51206 
21.5454 21.5454 -14.8397 5.09354 -55 -55 
-55 -55 -55 -55 -112.455 -50.3488 
-56.4838 -56.4838 -55 -109.963 -42.9409 20.8936 
-57.6465 -57.6465 -48.0759 -11.1682 -69.8381 -55 
-58.2666 -58.2666 -65.2804 -55 -75.8795 -79.611 
-58.1397 -58.1397 -46.6108 -122.563 -27.7219 -39.7055 
-57.0784 -57.0784 -57.5626 6.85851 14.4014 -40.5391 
-54.8035 -54.8035 -75.9927 -55 -55 -41.3358 
-50.6429 -50.6429 -0.516655 -172.567 -64.4228 -55 
-42.6621 -42.6621 -55 -55 -75.2279 -74.1631 
-24.1579 -24.1579 2.10529 -97.845 -64.0746 2.25804 
-55 -55 -55 -61.5759 -72.6046 -55 
-54.136 -54.136 -55 -60.6309 -144.112 -36.1551 
-51.8352 -51.8352 -43.8863 -47.5297 -55 10.0809 
-47.0049 -47.0049 -7.6968 -97.7812 -108.943 -55 
-36.4774 -36.4774 -55 -56.9861 -30.2594 -74.9974 
-8.00909 -8.00909 -43.5207 -39.64 -28.124 -51.1398 
-55 -55 -50.5393 -25.4858 13.1132 -63.9732 
-55.7977 -55.7977 20.8841 11.6229 -55 -80.4288 
-55.9937 -55.9937 -55 -55 -112.45 -52.3999 
-55.3241 -55.3241 -0.760806 -95.137 -8.8544 29.1457 
-53.4109 -53.4109 -55 -63.7945 -55 -55 
-49.4801 -49.4801 0.0178761 -99.4119 -147.533 -1.97896 
-41.4255 -41.4255 -55 -53.3887 -55 -55 
-21.9016 -21.9016 -1.25766 -83.1362 -147.217 -4.51207 
-55 -55 -55 -72.4838 -55 -55 
-55.0335 -55.0335 -55 -111.072 -181.063 -6.50056 
-54.1086 -54.1086 -47.9604 2.13002 -55 -55 
-51.7158 -51.7158 -20.8402 -55 -112.214 -45.9444 
-46.7175 -46.7175 -55 -114.652 24.3585 -3.56346 
-35.7744 -35.7744 -46.0704 9.78481 -55 -55 
-5.77967 -5.77967 -14.9081 -55 -114.49 -45.8028 
-55 -55 -55 -117.345 29.2938 -3.10615 
-55.8342 -55.8342 -55 5.20857 -55 -55 
-56.0826 -56.0826 -2.55727 -55 -149.928 -7.83136 
-55.4877 -55.4877 -55 -119.133 -55 -55 
-53.6908 -53.6908 -3.27914 -28.9362 -149.096 -9.1062 
-49.9776 -49.9776 -55 6.86285 -55 -55 
-42.4396 -42.4396 -3.84582 -55 -148.444 -10.107 
-24.5794 -24.5794 -55 -120.416 -55 -55 
34.9627 34.9627 -4.29065 -25.4964 -147.931 -10.8925 
-55 -55 -55 19.0052 -55 -55 
-56.6199 -56.6199 -55 -55 -181.624 -11.5092 
-57.9697 -57.9697 -8.34561 -98.2056 -55 -55 
-58.8178 -58.8178 -55 -110.942 -112.654 -49.8762 
-58.9535 -58.9535 -50.0231 -5.46302 -56.6775 -30.3591 
-58.215 -58.215 -71.0756 -55 -63.9712 -11.6819 
-56.42 -56.42 -51.3022 -120.313 -23.6255 -55 
-53.1564 -53.1564 -68.5679 0.522325 29.6043 -77.2042 
-47.2724 -47.2724 -87.4908 -55 -55 -90.8145 
-35.1405 -35.1405 5.06838 -170.819 -65.6742 4.23012 
-2.07096 -2.07096 -55 -55 -77.3504 -55 
-55 -55 1.72515 -96.4723 -64.8381 16.6224 
-54.5616 -54.5616 -55 -73.7591 -108.175 -55 
-52.9212 -52.9212 -42.1176 -55.7148 -66.9513 -38.2476 
-49.3044 -49.3044 -45.6642 -63.0438 -72.7459 -36.0127 
-41.6894 -41.6894 -53.0464 -71.5175 -74.4264 -27.7815 
-23.1734 -23.1734 -66.8029 -75.9508 -73.8348 1.86008 
-55 -55 -81.9593 -75.4682 -73.0482 -55 
-55.4541 -55.4541 4.44744 -85.5317 -106.389 -74.3034 
-55.152 -55.152 -55 -69.2763 -32.4637 -88.3787 
-53.7463 -53.7463 -36.8976 -47.9866 -31.8612 -41.1583 
-50.606 -50.606 -26.1447 -43.0122 3.27423 -38.0606 
-44.1609 -44.1609 12.1015 -31.3525 -55 -28.3744 
-29.3602 -29.3602 -55 -45.9801 -109.19 34.8349 
16.2619 16.2619 -38.6364 -15.8537 -63.5147 -55 
-55 -55 -32.8887 -55 -69.404 -70.971 
-56.3128 -56.3128 -55 -126.346 -58.7154 -32.1306 
-57.2382 -57.2382 -39.1818 -55 -96.576 27.8096 
-57.5588 -57.5588 6.80307 -116.332 -6.28855 -55 
-57.0614 -57.0614 -55 -9.692 -55 -71.8259 
-55.4957 -55.4957 3.52746 -55 -142.82 -17.7974 
-52.3875 -52.3875 -55 -118.045 -55 -55 
-46.5033 -46.5033 1.49736 -31.7519 -143.516 -3.91736 
-33.9685 -33.9685 -55 -2.34192 -55 -55 
1.20013 1.20013 -0.096258 -55 -144.063 -6.03372 
-55 -55 -55 -119.43 -55 -55 
-55.0918 -55.0918 -55 -39.1365 -178.588 -7.69505 
-54.2542 -54.2542 -47.1398 -3.39132 -55 -55 
-52.004 -52.004 -18.2998 -55 -110.271 -46.8821 
-47.2886 -47.2886 -55 -120.119 20.4733 -6.55178 
-37.0803 -37.0803 -45.5542 23.4016 -55 -55 
-9.81889 -9.81889 -13.2382 -55 -113.02 -46.3906 
-55 -55 -55 -121.547 26.0591 -4.99419 
-55.7117 -55.7117 -55 16.3697 -55 -55 
-55.7839 -55.7839 -2.26662 -55 -148.809 -8.19941 
-54.9358 -54.9358 -55 -122.381 -55 -55 
-52.7381 -52.7381 -3.05098 -19.9691 -148.218 -9.39513 
-48.2597 -48.2597 -55 -55 -55 -55 
-38.855 -38.855 -55 -148.362 -99.5019 -55 
-14.746 -14.746 -49.2273 -55 -90.6312 -42.1137 
-55 -55 -26.9863 -121.209 -20.8317 2.35745 
-55.2808 -55.2808 -55 -7.98793 6.0672 -55 
-54.7237 -54.7237 -46.8119 -55 -55 -41.1312 
-52.9228 -52.9228 24.4881 -171.239 -66.15 -55 
-49.0669 -49.0669 -55 -55 -78.1246 -78.8457 
-40.9827 -40.9827 -4.63469 -96.8025 -65.042 -1.3927 
-21.0815 -21.0815 -55 -62.4994 -74.5606 -55 
-55 -55 -47.1101 -49.785 -111.247 -39.372 
-55.3694 -55.3694 23.2288 -63.9887 -57.9709 -40.2803 
-54.9431 -54.9431 -55 -72.9972 -62.9057 -41.2463 
-53.3463 -53.3463 -46.5714 -53.3959 -101.961 -4.5558 
-49.8649 -49.8649 -60.5954 -57.272 -44.5463 -55 
-42.6535 -42.6535 -82.6665 -62.9411 -35.1139 -74.3971 
-25.5336 -25.5336 -86.5037 -69.2127 -8.74037 -88.4679 
30.7965 30.7965 -81.1092 -73.1132 -55 -79.0189 
-55 -55 -38.5199 -123.341 -109.799 -53.204 
-56.7806 -56.7806 -55 9.41762 -62.772 -63.0634 
-58.3498 -58.3498 -36.7234 -55 -102.884 -37.4473 
-59.4561 -59.4561 16.302 -114.354 4.77891 29.1773 
-59.8675 -59.8675 -55 -14.2956 -55 -55 
-59.4328 -59.4328 5.02687 -55 -144.098 -0.74732 
-58.043 -58.043 -55 -116.532 -55 -55 
-55.4754 -55.4754 2.67441 -35.5077 -144.52 -3.54523 
-51.0798 -51.0798 -55 -13.5847 -55 -55 
-42.9215 -42.9215 0.827721 -55 -144.851 -5.7416 
-24.2896 -24.2896 -55 -118.103 -55 -55 
-55 -55 -0.621928 -31.604 -145.111 -7.46574 
-53.6921 -53.6921 -55 -12.8602 -55 -55 
-50.6868 -50.6868 -1.7599 -55 -145.315 -8.81919 
-44.4755 -44.4755 -55 -119.207 -55 -55 
-30.2717 -30.2717 -2.65321 -28.7403 -145.475 -9.88165 
12.8493 12.8493 -55 7.52762 -55 -55 
-55 -55 -3.35446 -55 -145.601 -10.7157 
-56.3023 -56.3023 -55 -131.469 -55 -55 
-57.2128 -57.2128 -3.90494 19.4896 -145.7 -11.3704 
-57.5145 -57.5145 -55 -55 -55 -55 
-56.9927 -56.9927 -55 -147.76 -97.5251 -55 
-55.3919 -55.3919 -49.8307 -55 -92.5705 -43.5092 
-52.2222 -52.2222 -28.7587 -120.737 -16.7043 -2.49214 
-46.2033 -46.2033 -7.99442 1.68633 -55 -55 
-33.2852 -33.2852 -55 -55 -112.299 -49.7937 
3.45054 3.45054 -4.54109 -98.0352 -9.17026 22.5001 
-55 -55 -55 -61.398 -55 -55 
-55.1726 -55.1726 -55 -110.294 -181.514 -11.2911 
-54.4552 -54.4552 -48.582 -6.10025 -55 -55 
-52.3995 -52.3995 -22.7289 -55 -112.568 -49.705 
-48.0619 -48.0619 -55 -119.331 25.0985 -15.1235 
-38.8076 -38.8076 -46.4624 21.2934 -55 -55 
-14.9533 -14.9533 -16.1619 -55 -114.759 -48.1707 
-55 -55 -55 -120.939 29.9033 -10.5437 
-55.5557 -55.5557 -55 14.6651 -55 -55 
-55.4019 -55.4019 -2.77829 -55 -150.133 -9.3183 
-54.2203 -54.2203 -55 -121.908 -55 -55 
-51.4685 -51.4685 -3.45264 -21.3268 -149.257 -10.2735 
-45.8616 -45.8616 -55 -55 -55 -55 
-33.4611 -33.4611 -55 -147.994 -100.318 -55 
1.98496 1.98496 -49.5111 -55 -89.7393 -42.7342 
-55 -55 -27.8236 -120.92 -22.5558 0.181792 
-55.8444 -55.8444 -55 -8.79246 -1.884 -55 
-56.1075 -56.1075 -46.9915 -55 -55 -41.5153 
-55.5333 -55.5333 23.9228 -171.015 -66.3975 34.5698 
-53.7685 -53.7685 -55 -55 -78.5201 -55 
-50.1146 -50.1146 -4.74742 -96.6265 -65.1312 11.1052 
-42.7155 -42.7155 -55 -62.6468 -74.7963 -55 
-25.2938 -25.2938 -47.1986 -49.7933 -111.399 -42.5785 
32.1095 32.1095 -62.5704 -52.8922 -23.5586 -51.8942 
-55 -55 -85.2787 -58.1815 31.2341 -70.6267 
-56.5259 -56.5259 0.50008 -76.807 -55 -89.2212 
-57.7467 -57.7467 -55 -126.044 -112.871 -49.5471 
-58.4383 -58.4383 -41.7755 -55 -56.2173 -21.4224 
-58.3955 -58.3955 -2.69418 -114.765 -15.2065 -55 
-57.4412 -57.4412 -55 -13.3637 -55 -71.5272 
-55.3301 -55.3301 1.93246 -55 -147.076 -17.4491 
-51.4842 -51.4842 -55 -116.846 -55 -55 
-44.2614 -44.2614 0.245293 -34.743 -146.857 -3.71503 
-28.1613 -28.1613 -55 -11.392 -55 -55 
22.0007 22.0007 -1.07913 -55 -146.686 -5.87488 
-55 -55 -55 -118.374 -55 -55 
-55.4269 -55.4269 -55 -41.894 -180.647 -7.57037 
-55.085 -55.085 -47.8342 -10.1701 -55 -55 
-53.6183 -53.6183 -20.4532 -55 -111.887 -46.7842 
-50.3702 -50.3702 -55 -119.216 23.6835 -6.24314 
-43.6859 -43.6859 -45.991 20.9882 -55 -55 
-28.1738 -28.1738 -14.6526 -55 -114.242 -46.3291 
20.6428 20.6428 -55 -120.849 28.7361 -4.79814 
-55 -55 -44.8338 25.4031 -55 -55 
-56.4547 -56.4547 -55 -55 -150.128 -46.0438 
-57.5771 -57.5771 -3.08516 -98.7075 -55 33.9994 
-58.1472 -58.1472 -55 -110.452 -115.232 -55 
-57.9604 -57.9604 -45.8937 -7.25642 -50.9669 -39.0143 
-56.8213 -56.8213 -58.4257 -55 -56.3196 -38.9337 
-54.4242 -54.4242 -37.6883 -120.598 -16.4964 15.4661 
-50.0234 -50.0234 -32.7436 1.30296 -55 -55 
-41.4483 -41.4483 28.3662 -55 -114.255 -45.8145 
-20.9823 -20.9823 -55 -121.334 28.7655 -3.14388 
-55 -55 -41.9504 26.7528 -55 -55 
-54.2616 -54.2616 -55 -55 -150.138 -45.7215 
-52.1572 -52.1572 -0.821679 -99.0833 -55 -55 
-47.6961 -47.6961 -55 -110.072 -115.24 -46.0477 
-38.0871 -38.0871 -44.1168 -8.62411 -50.9487 -18.6323 
-12.9215 -12.9215 -52.5629 -55 -56.2907 -55 
-55 -55 -27.1449 -120.811 -16.4592 -22.9652 
-55.6835 -55.6835 -55 -9.09421 25.0512 18.7539 
-55.715 -55.715 -41.6512 -55 -55 -55 
-54.8075 -54.8075 -55 -170.931 -67.3132 6.06579 
-52.5133 -52.5133 -42.3444 -55 -113.647 -55 
-47.8442 -47.8442 -4.70527 -119.966 27.1055 -25.4822 
-37.953 -37.953 -55 -0.415854 -55 6.26457 
-12.1101 -12.1101 1.58083 -55 -149.531 -55 
-55 -55 -55 -120.845 -55 -25.4853 
-55.3708 -55.3708 -55 -35.3015 -182.88 -55 
-54.9465 -54.9465 -45.955 7.08921 -55 -40.6169 
-53.3529 -53.3529 -14.5365 -55 -113.64 -14.8019 
-49.8772 -49.8772 -55 -121.366 27.4027 -55 
-42.679 -42.679 -44.8112 26.8447 -55 -39.6448 
-25.5999 -25.5999 -10.7971 -55 -115.574 -11.2152 
30.5347 30.5347 -55 -122.515 31.7894 -55 
-55 -55 -44.0966 30.1248 -55 -39.0477 
-56.7723 -56.7723 -55 -55 -151.145 -8.97459 
-58.3301 -58.3301 -2.50651 -100.002 -55 -55 
-59.4233 -59.4233 -55 -109.095 -116.03 -46.4796 
-59.8213 -59.8213 -45.4394 -12.0495 -49.09 -20.0138 
-59.3726 -59.3726 -56.9509 -55 -53.1968 32.2116 
-57.9654 -57.9654 -35.2893 -121.332 -12.0507 -55 
-55.3692 -55.3692 -25.0684 3.34163 -55 -76.3746 
-50.9148 -50.9148 -55 -55 -114.932 -60.1014 
-42.6084 -42.6084 0.389396 -98.4968 -3.40728 11.554 
-23.4897 -23.4897 -55 -60.9542 -55 -55 
-55 -55 0.920785 -99.1805 -149.423 -6.2581 
-53.7252 -53.7252 -55 -67.2683 -55 -55 
-50.7731 -50.7731 -0.548873 -101.633 -148.7 -7.8712 
-44.6691 -44.6691 -55 -48.3974 -55 -55 
-30.7643 -30.7643 -1.70255 -73.0444 -148.132 -9.13748 
11.0822 11.0822 -55 -74.6842 -55 -55 
-55 -55 -2.60819 -100.323 -147.687 -10.1315 
-56.2586 -56.2586 -55 -58.5921 -55 -55 
-57.1081 -57.1081 -3.31912 -87.4548 -147.337 -10.9118 
-57.3307 -57.3307 -55 -65.5616 -55 -55 
-56.7061 -56.7061 -3.8772 -93.64 -147.062 -11.5244 
-54.9549 -54.9549 -55 -56.7761 -55 -55 
-51.5175 -51.5175 -4.31529 -82.7811 -146.847 -12.0052 
-44.8998 -44.8998 -55 -67.4479 -55 -55 
-30.2323 -30.2323 -4.65919 -93.3317 -146.678 -12.3827 
13.9625 13.9625 -55 -55.7536 -55 -55 
-55 -55 -4.92915 -79.9258 -146.545 -12.679 
-55.5436 -55.5436 -55 -78.7194 -55 -55 
-55.3723 -55.3723 -5.14108 -94.0826 -146.441 -12.9116 
-54.1643 -54.1643 -55 -53.4687 -55 -55 
-51.3675 -51.3675 -5.30743 -75.135 -146.359 -13.0942 
-45.6653 -45.6653 -55 -67.8036 -55 -55 
-32.9995 -32.9995 -5.43802 -91.8739 -146.295 -13.2375 
3.52486 3.52486 -55 -56.2967 -55 -55 
-55 -55 -5.54054 -79.4279 -146.244 -13.35 
-55.8954 -55.8954 -55 -77.702 -55 -55 
-56.2315 -56.2315 -5.62101 -93.273 -146.205 -13.4384 
-55.7601 -55.7601 -55 -53.74 -55 -55 
-54.1527 -54.1527 -5.68418 -74.775 -146.173 -13.5077 
-50.7851 -50.7851 -55 -67.0537 -55 -55 
-44.0445 -44.0445 -5.73377 -90.7549 -146.149 -13.5621 
-28.6496 -28.6496 -55 -57.1777 -55 -55 
19.2543 19.2543 -5.7727 -80.2213 -146.13 -13.6049 
-55 -55 -55 -65.9442 -55 -55 
-56.0978 -56.0978 -55 -100.831 -180.21 -13.6384 
-56.7212 -56.7212 -51.1502 -16.8995 -55 -55 
-56.6447 -56.6447 -30.2043 19.0463 -111.544 -51.5476 
-55.6136 -55.6136 -14.2944 -55 -25.2664 -72.9938 
-53.2319 -53.2319 -55 -111.483 -55 -39.9264 
-48.5942 -48.5942 -2.86074 -46.7191 -146.483 27.0636 
-39.0721 -39.0721 -55 -40.0149 -55 -55 
-14.919 -14.919 -3.51737 -49.4799 -146.392 -8.95005 
-55 -55 -55 -46.3733 -55 -55 
-54.9047 -54.9047 -55 -76.9505 -180.416 -9.98438 
-53.7863 -53.7863 -49.5568 -48.9825 -55 -55 
-51.0718 -51.0718 -25.6285 -94.493 -111.706 -48.6792 
-45.4183 -45.4183 4.1919 -56.7533 -24.9386 -64.7014 
-32.7088 -32.7088 -55 -57.577 23.5906 -86.2122 
4.23657 4.23657 -46.4996 -35.3377 -55 -45.3802 
-55 -55 -16.2804 -57.6405 -114.302 -20.6287 
-56.1372 -56.1372 -55 -70.3203 -53.4775 33.6574 
-56.8163 -56.8163 -45.1524 -47.0268 -93.8709 -55 
-56.8143 -56.8143 -56.0106 -39.6203 -63.7424 -73.0467 
-55.8869 -55.8869 -75.4283 -21.0835 -71.2721 -87.1145 
-53.6714 -53.6714 -87.9595 -55 -75.0578 -79.3438 
-49.362 -49.362 -37.3089 -113.92 -26.5185 -29.6412 
-40.6684 -40.6684 -26.6824 -15.2625 20.1013 1.06696 
-19.3841 -19.3841 10.6602 -55 -55 -55 
-55 -55 -55 -165.908 -63.7092 13.3981 
-54.7401 -54.7401 -55 -55 -141.763 -55 
-53.3726 -53.3726 1.25198 -92.6173 -55 18.1566 
-50.2336 -50.2336 -55 -115.038 -111.244 -55 
-43.6799 -43.6799 -42.489 11.3719 -59.5764 -37.0432 
-28.3996 -28.3996 -46.9701 -55 -66.7774 -31.3297 
19.5823 19.5823 -14.5769 -117.088 -24.7178 -55 
-55 -55 -55 -7.8489 26.1947 -74.5896 
-56.5988 -56.5988 -55 -55 -55 -50.7661 
-57.9197 -57.9197 -55 -144.925 -98.435 -55 
-58.7331 -58.7331 -45.1287 -55 -91.7167 -35.1308 
-58.8298 -58.8298 -14.175 -118.511 -18.5896 28.9638 
-58.0456 -58.0456 -55 -4.25665 -55 -55 
-56.1852 -56.1852 -0.149551 -55 -146.556 -6.77791 
-52.804 -52.804 -55 -119.72 -55 -55 
-46.6564 -46.6564 -1.38909 -27.3771 -146.45 -8.27924 
-33.7721 -33.7721 -55 12.2444 -55 -55 
2.34025 2.34025 -2.36212 -55 -146.366 -9.45779 
-55 -55 -55 -120.959 -55 -55 
-54.7247 -54.7247 -55 -34.9854 -180.396 -10.383 
-53.3336 -53.3336 -48.7407 8.00781 -55 -55 
-50.1541 -50.1541 -23.206 -55 -111.69 -48.9921 
-43.512 -43.512 -55 -121.469 23.2806 -13.019 
-27.9709 -27.9709 -46.5626 27.1334 -55 -55 
21.19 21.19 -16.4804 -55 -114.093 -47.7196 
-55 -55 -55 -122.595 28.4025 -9.1615 
-56.6469 -56.6469 -55 19.371 -55 -55 
-58.0339 -58.0339 -2.83482 -55 -149.625 -9.03419 
-58.9264 -58.9264 -55 -123.196 -55 -55 
-59.111 -59.111 -3.49702 -17.5869 -148.859 -10.0504 
-58.4294 -58.4294 -55 -55 -55 -55 
-56.7138 -56.7138 -55 -148.997 -100.005 -55 
-53.5914 -53.5914 -49.5425 -55 -90.0877 -42.5767 
-48.019 -48.019 -27.9157 -121.708 -21.8945 0.731314 
-36.7583 -36.7583 -4.62127 4.40209 -55 -55 
-7.09203 -7.09203 -55 -55 -113.802 -49.2155 
-55 -55 -4.46114 -98.7889 -5.94786 24.2 
-54.3728 -54.3728 -55 -71.6499 -55 -55 
-52.4411 -52.4411 -2.88688 -106.852 -148.561 -10.925 
-48.299 -48.299 -55 -39.0273 -55 -55 
-39.4609 -39.4609 -3.53789 -52.0162 -148.023 -11.5347 
-16.9521 -16.9521 -55 -56.1239 -55 -55 
-55 -55 -4.04894 -88.776 -147.601 -12.0134 
-55.5916 -55.5916 -55 -79.5466 -55 -55 
-55.4901 -55.4901 -4.4501 -100.291 -147.27 -12.3891 
-54.3865 -54.3865 -55 -48.2624 -55 -55 
-51.7669 -51.7669 -4.76502 -70.1592 -147.01 -12.684 
-46.4364 -46.4364 -55 -71.5659 -55 -55 
-34.7954 -34.7954 -5.01223 -97.8271 -146.806 -12.9155 
-2.37019 -2.37019 -55 -50.6669 -55 -55 
-55 -55 -5.20629 -73.0291 -146.645 -13.0973 
-55.6994 -55.6994 -55 -81.4351 -55 -55 
-55.7539 -55.7539 -5.35863 -94.8624 -146.519 -13.24 
-54.8801 -54.8801 -55 -53.8806 -55 -55 
-52.6405 -52.6405 -5.47821 -77.2822 -146.421 -13.352 
-48.0799 -48.0799 -55 -68.8858 -55 -55 
-38.4662 -38.4662 -5.57208 -93.5572 -146.343 -13.4399 
-13.6179 -13.6179 -55 -54.8805 -55 -55 
-55 -55 -5.64577 -78.0588 -146.282 -13.5089 
-55.3194 -55.3194 -55 -78.8947 -55 -55 
-54.8193 -54.8193 -5.70362 -93.697 -146.234 -13.5631 
-53.1078 -53.1078 -55 -53.748 -55 -55 
-49.4172 -49.4172 -5.74903 -75.3496 -146.197 -13.6056 
-41.7222 -41.7222 -55 -67.5554 -55 -55 
-23.0794 -23.0794 -5.78468 -91.5036 -146.168 -13.639 
-55 -55 -55 -56.5949 -55 -55 
-55.3087 -55.3087 -55 -90.6883 -180.24 -13.6652 
-54.7929 -54.7929 -51.1587 -34.0916 -55 -55 
-53.0568 -53.0568 -30.2281 -49.6077 -111.567 -51.5686 
-49.3209 -49.3209 -14.3862 -42.0143 -25.2195 -73.0522 
-41.5198 -41.5198 -55 -24.762 22.5774 -92.571 
-22.5368 -22.5368 -46.9502 -55 -55 -39.8917 
-55 -55 24.0524 -161.157 -65.9303 -55 
-55.3252 -55.3252 -55 -55 -111.865 -74.0705 
-54.8337 -54.8337 -4.72153 -88.888 -10.8996 2.34796 
-53.1356 -53.1356 -55 -66.6753 -55 -55 
-49.4696 -49.4696 -3.09129 -96.7569 -147.742 -6.00677 
-41.8321 -41.8321 -55 -53.8048 -55 -55 
-23.3726 -23.3726 -3.69835 -79.8768 -147.38 -7.67391 
-55 -55 -55 -70.5953 -55 -55 
-55.2998 -55.2998 -55 -107.404 -181.192 -8.9826 
-54.7709 -54.7709 -49.6847 -5.13316 -55 -55 
-53.0141 -53.0141 -26.0032 -55 -112.315 -47.8928 
-49.2401 -49.2401 -55 -112.298 24.5686 -9.69413 
-41.3496 -41.3496 -47.1596 4.65871 -55 -55 
-22.0781 -22.0781 -18.3617 -55 -114.567 -47.0261 
-55 -55 -55 -115.554 29.467 -7.00454 
-55.3391 -55.3391 -55 0.881713 -55 -55 
-54.8682 -54.8682 -3.17211 -55 -149.987 -8.59815 
-53.2022 -53.2022 -55 -117.759 -55 -55 
-49.5948 -49.5948 -3.7618 -32.4738 -149.142 -9.70813 
-42.0936 -42.0936 -55 -4.5951 -55 -55 
-24.0663 -24.0663 -4.2247 -55 -148.48 -10.5795 
-55 -55 -55 -119.176 -55 -55 
-55.2787 -55.2787 -55 -39.8077 -182.055 -11.2635 
-54.7187 -54.7187 -50.0566 -5.09996 -55 -55 
-52.913 -52.913 -27.0855 -55 -112.992 -49.6833 
-49.0483 -49.0483 -55 -119.899 25.9994 -15.0601 
-40.943 -40.943 -47.3953 22.8095 -55 -55 
-20.973 -20.973 -19.0965 -55 -115.081 -48.1569 
-55 -55 -55 -121.378 30.6427 -10.5018 
-55.3727 -55.3727 -55 15.8917 -55 -55 
-54.9512 -54.9512 -3.30543 -55 -150.379 -9.30964 
-53.362 -53.362 -55 -122.249 -55 -55 
-49.8941 -49.8941 -3.86645 -20.3495 -149.451 -10.2667 
-42.7138 -42.7138 -55 -55 -55 -55 
-25.6901 -25.6901 -55 -148.259 -100.47 -55 
30.1791 30.1791 -49.8035 -55 -89.5676 -42.7294 
-55 -55 -28.6795 -121.128 -22.8762 0.198504 
-56.7609 -56.7609 -55 -8.21304 -3.33574 -55 
-58.3033 -58.3033 -47.1766 -55 -55 -41.5123 
-59.3786 -59.3786 23.3427 -171.177 -66.4443 34.5805 
-59.7582 -59.7582 -55 -55 -78.5944 -55 
-59.2904 -59.2904 -4.86373 -96.7534 -65.1468 11.107 
-57.859 -57.859 -55 -62.5408 -74.8399 -55 
-55.2227 -55.2227 -47.2899 -49.7878 -111.428 -42.5771 
-50.6856 -50.6856 -62.8553 -52.9733 -23.4999 -51.8892 
-42.17 -42.17 -85.6304 -58.4078 31.4551 -70.6163 
-22.3565 -22.3565 -84.7856 -66.1971 -55 -89.2167 
-55 -55 -38.8172 -123.135 -112.895 -49.5518 
-53.7719 -53.7719 -55 5.97174 -56.5558 -59.3143 
-50.8945 -50.8945 -38.7674 -55 -97.6876 -36.2337 
-44.9404 -44.9404 8.37063 -116.417 -8.07487 30.1525 
-31.4495 -31.4495 -55 -9.48532 -55 -55 
8.65595 8.65595 3.78109 -55 -145.791 -3.00998 
-55 -55 -55 -118.11 -55 -55 
-56.1989 -56.1989 -55 -42.5697 -179.944 -5.32142 
-56.9646 -56.9646 -44.4005 -11.7342 -55 -55 
-57.0776 -57.0776 -9.42876 33.472 -111.335 -45.0188 
-56.3072 -56.3072 -55 -55 -25.6873 -53.1635 
-54.3363 -54.3363 -2.0831 -97.1802 -55 21.9939 
-50.4945 -50.4945 -55 -111.881 -112.618 -55 
-42.9376 -42.9376 -45.1071 -1.92362 -56.7533 -36.5615 
-25.3803 -25.3803 -55.8614 -55 -64.0538 -29.4244 
32.2081 32.2081 -33.4076 -119.728 -23.6709 -55 
-55 -55 -18.7414 -1.0572 29.4444 -74.297 
-56.1682 -56.1682 -55 -55 -55 -88.3725 
-56.891 -56.891 -55 -146.96 -99.3541 -55 
-56.9472 -56.9472 -43.5095 -55 -90.787 -33.9839 
-56.0996 -56.0996 -8.74354 -120.109 -20.5199 33.7067 
-54.0096 -54.0096 -55 -0.0317893 -55 -55 
-49.9424 -49.9424 0.858598 -55 -147.113 -6.08618 
-41.844 -41.844 -55 -120.955 -55 -55 
-22.5421 -22.5421 -0.59769 -24.0114 -146.887 -7.73624 
-55 -55 -55 24.5513 -55 -55 
-54.622 -54.622 -55 -55 -180.805 -9.03154 
-53.0743 -53.0743 -5.73653 -98.7205 -55 -55 
-49.6213 -49.6213 -55 -110.439 -112.011 -47.9312 
-42.3757 -42.3757 -47.975 -7.30337 -58.0202 -24.548 
-25.0105 -25.0105 -64.972 -55 -65.362 11.9486 
32.6913 32.6913 -46.288 -120.605 -24.2871 -55 
-55 -55 -56.7618 1.32325 27.3768 -76.689 
-56.9905 -56.9905 10.7217 -55 -55 -90.431 
-58.8427 -58.8427 -55 -171.046 -65.2196 4.15531 
-60.2677 -60.2677 -41.7473 -55 -110.3 -55 
-60.9863 -60.9863 -2.59399 -120.057 18.8488 -20.9397 
-60.8392 -60.8392 -55 -0.172207 -55 29.1731 
-59.7792 -59.7792 1.94984 -55 -148.069 -55 
-57.7324 -57.7324 -55 -120.914 -55 -22.8487 
-54.3782 -54.3782 0.258939 -24.1228 -147.637 -55 
-48.7207 -48.7207 -55 24.1287 -55 -76.4301 
-37.6746 -37.6746 -1.06842 -55 -147.298 -22.2623 
-9.32322 -9.32322 -55 -122.088 -55 -55 
-55 -55 -2.1104 -20.8126 -147.032 -7.05859 
-53.8603 -53.8603 -55 26.1335 -55 -55 
-51.1238 -51.1238 -2.92835 -55 -146.823 -8.49958 
-45.4499 -45.4499 -55 -122.959 -55 -55 
-32.7211 -32.7211 -3.57045 -18.2852 -146.659 -9.63076 
4.25198 4.25198 -55 -55 -55 -55 
-55 -55 -55 -148.812 -98.2782 -55 
-56.0912 -56.0912 -55 -55 -125.964 -42.2802 
-56.7053 -56.7053 -9.1264 -98.1562 -55 -55 
-56.6162 -56.6162 -55 -110.99 -111.49 -49.6624 
-55.5675 -55.5675 -50.6361 -5.28841 -59.0822 -29.7353 
-53.1571 -53.1571 -72.8369 -55 -66.3509 -9.2706 
-48.4622 -48.4622 -52.2122 -120.284 -24.6161 -55 
-38.7928 -38.7928 -70.649 0.445686 26.4261 -77.1426 
-14.1166 -14.1166 -88.7158 -55 -55 -90.7697 
-55 -55 6.10991 -170.797 -64.8809 4.22197 
-54.9339 -54.9339 -55 -55 -110.115 -55 
-53.8597 -53.8597 1.53018 -96.4552 -15.1142 16.6607 
-51.2191 -51.2191 -55 -62.7878 -55 -55 
-45.7184 -45.7184 1.8163 -99.5037 -147.009 -8.13234 
-33.4287 -33.4287 -55 -54.1655 -55 -55 
1.81732 1.81732 0.154108 -85.3137 -146.805 -9.34247 
-55 -55 -55 -71.6301 -55 -55 
-56.0641 -56.0641 -55 -111.495 -180.74 -10.2924 
-56.64 -56.64 -46.9629 2.7739 -55 -55 
-56.4993 -56.4993 -17.7451 -55 -111.96 -48.921 
-55.3775 -55.3775 -55 -115.13 23.834 -12.807 
-52.8475 -52.8475 -45.4431 10.881 -55 -55 
-47.9106 -47.9106 -12.876 -55 -114.298 -47.6747 
-37.6112 -37.6112 -55 -117.71 28.8606 -9.023 
-10.6534 -10.6534 -44.4911 17.1081 -55 -55 
-55 -55 -9.73188 -55 -116.075 -46.8888 
-55.0595 -55.0595 -55 -130.674 -1.1208 -6.57295 
-54.1736 -54.1736 -43.8971 -55 -55 -55 
-51.8446 -51.8446 34.0242 -169.435 -68.329 6.22416 
-46.9735 -46.9735 -55 -55 -81.4385 -55 
-36.3628 -36.3628 -2.8138 -95.3861 -65.4849 12.525 
-7.61641 -7.61641 -55 -63.6149 -76.3622 -55 
-55 -55 -45.6807 -49.7389 -112.48 -41.464 
-55.7785 -55.7785 27.7863 -62.8671 -55.4583 -47.9506 
-55.947 -55.947 -55 -71.0343 -60.2118 -61.84 
-55.2379 -55.2379 -45.6755 -52.1232 -100.011 -44.4871 
-53.2625 -53.2625 -57.7194 -54.3331 -49.5201 -50.0802 
-49.214 -49.214 -78.3181 -57.8523 -47.1179 -61.1375 
-40.8749 -40.8749 -87.8532 -62.8234 -41.9437 -76.9409 
-20.4134 -20.4134 -79.3981 -68.2495 -29.3495 -82.9857 
-55 -55 -82.9356 -71.8689 10.1549 -78.8484 
-55.0853 -55.0853 6.18793 -83.7094 -55 -79.0923 
-54.2379 -54.2379 -55 -119.18 -111.071 -47.49 
-51.9718 -51.9718 -35.9805 29.8169 -59.9213 -8.78835 
-47.225 -47.225 -22.4902 -55 -67.0623 -55 
-36.9361 -36.9361 -55 -113.817 -24.7711 -12.5668 
-9.37965 -9.37965 -37.5654 7.91637 -7.60101 -55 
-55 -55 -28.7635 -55 -55 -68.3588 
-55.725 -55.725 -55 -177.4 -97.8766 1.42038 
-55.8165 -55.8165 -38.5283 -55 -91.8985 -55 
-54.9963 -54.9963 9.28088 -116.147 -17.5918 -17.2973 
-52.8436 -52.8436 -55 -10.1352 -55 -55 
-48.4535 -48.4535 3.92721 -55 -145.967 -4.10426 
-39.2709 -39.2709 -55 -117.903 -55 -55 
-15.9396 -15.9396 1.81117 -32.1112 -145.987 -6.18043 
-55 -55 -55 -3.46886 -55 -55 
-55.2398 -55.2398 -55 -55 -180.098 -7.81022 
-54.6222 -54.6222 -4.03467 -95.8974 -55 -55 
-52.7255 -52.7255 -55 -112.937 -111.456 -46.9725 
-48.6906 -48.6906 -46.639 2.24345 -59.1508 -21.5723 
-40.1774 -40.1774 -60.8099 -55 -66.4113 25.0661 
-18.8564 -18.8564 -41.2074 -118.993 -24.632 -55 
-55 -55 -43.2194 -3.00481 26.3864 -76.4743 
-55.4371 -55.4371 -55 -55 -55 -90.2649 
-55.11 -55.11 -55 -146.392 -98.566 -55 
-53.6661 -53.6661 -43.4997 -55 -91.5883 -35.4748 
-50.4584 -50.4584 -8.70983 -119.663 -18.8636 27.5615 
-43.8642 -43.8642 -55 -1.23193 -55 -55 
-28.6213 -28.6213 0.86472 -55 -146.636 -6.98591 
18.9772 18.9772 -55 -120.609 -55 -55 
-55 -55 -0.592884 -24.9648 -146.512 -8.44253 
-56.4009 -56.4009 -55 9.98436 -55 -55 
-57.4487 -57.4487 -1.7371 -55 -146.415 -9.58597 
-57.9252 -57.9252 -55 -121.522 -55 -55 
-57.6243 -57.6243 -2.63531 -22.4238 -146.339 -10.4836 
-56.3329 -56.3329 -55 30.6827 -55 -55 
-53.6895 -53.6895 -3.34041 -55 -146.279 -11.1882 
-48.7913 -48.7913 -55 -122.676 -55 -55 
-38.9431 -38.9431 -3.89391 -19.1122 -146.232 -11.7413 
-14.0532 -14.0532 -55 -55 -55 -55 
-55 -55 -55 -148.592 -97.9428 -55 
-54.5288 -54.5288 -55 -55 -126.282 -43.7713 
-52.8381 -52.8381 -9.33208 -97.9832 -55 34.4974 
-49.1317 -49.1317 -55 -111.153 -111.245 -55 
-41.3121 -41.3121 -50.7975 -4.68049 -59.5743 -43.1058 
-22.1477 -22.1477 -73.2958 -55 -66.7756 -53.7253 
-55 -55 -52.41 -120.186 -24.7174 -21.6722 
-55.4764 -55.4764 14.4119 -10.8074 -7.89997 23.441 
-55.2069 -55.2069 -55 -55 -55 -55 
-53.8508 -53.8508 -55 -147.04 -97.5832 -55 
-50.7975 -50.7975 -46.4837 -55 -92.518 -41.3039 
-44.5436 -44.5436 -18.5592 -120.171 -16.8237 5.24307 
-30.303 -30.303 -55 0.138137 -55 -55 
12.8606 12.8606 -0.997288 -55 -146.041 -10.5462 
-55 -55 -55 -121.003 -55 -55 
-56.2021 -56.2021 -55 -34.8618 -180.14 -11.2373 
-56.9725 -56.9725 -47.7764 8.36897 -55 -55 
-57.0915 -57.0915 -20.2754 -55 -111.489 -49.6627 
-56.3292 -56.3292 -55 -121.509 22.8747 -15.0001 
-54.3707 -54.3707 -45.9546 27.2463 -55 -55 
-50.5523 -50.5523 -14.5352 -55 -113.941 -48.1439 
-43.0506 -43.0506 -55 -122.626 28.0656 -10.4622 
-25.668 -25.668 -44.811 30.4469 -55 -55 
31.0733 31.0733 -10.7964 -55 -115.803 -47.1843 
-55 -55 -55 -123.495 32.3291 -7.50001 
-56.13 -56.13 -55 22.0211 -55 -55 
-56.7989 -56.7989 -1.84896 -55 -150.932 -8.69754 
-56.7834 -56.7834 -55 -123.898 -55 -55 
-55.8373 -55.8373 -2.72312 -15.4914 -149.884 -9.78616 
-53.592 -53.592 -55 -55 -55 -55 
-49.2244 -49.2244 -55 -149.546 -100.81 -55 
-40.3857 -40.3857 -48.9957 -55 -89.1758 -42.3899 
-18.6083 -18.6083 -26.2981 -122.138 -23.5939 1.38504 
-55 -55 2.00557 5.63102 27.5374 -55 
-54.7689 -54.7689 -55 -55 -55 -79.185 
-53.4451 -53.4451 -55 -148.83 -101.109 28.496 
-50.3815 -50.3815 -47.7149 -55 -88.8239 -55 
-43.9906 -43.9906 -22.4151 -121.577 -24.2228 -25.6229 
-29.1871 -29.1871 18.7429 4.03108 24.7466 5.58132 
16.6674 16.6674 -55 -55 -55 -55 
-55 -55 -55 -148.393 -101.204 -55 
-56.5114 -56.5114 -55 -55 -122.807 -42.01 
-57.712 -57.712 -7.18487 -97.8274 25.772 -55 
-58.379 -58.379 -55 -61.5922 -55 -79.5355 
-58.3074 -58.3074 -5.02502 -99.3556 -148.726 -24.3162 
-57.3167 -57.3167 -55 -55.4543 -55 12.4462 
-55.1506 -55.1506 -5.21633 -88.2985 -148.153 -55 
-51.1999 -51.1999 -55 -69.5916 -55 -77.0634 
-43.7272 -43.7272 -5.36651 -100.421 -147.703 -22.7438 
-26.847 -26.847 -55 -48.6726 -55 20.8611 
26.9719 26.9719 -5.4844 -71.6345 -147.35 -55 
-55 -55 -55 -72.584 -55 -75.7373 
-55.5994 -55.5994 -55 -109.494 -181.168 -21.6989 
-55.509 -55.509 -50.9465 -0.883528 -55 -55 
-54.4221 -54.4221 -29.6307 -55 -112.296 -44.4661 
-51.8305 -51.8305 29.6918 -113.445 24.5293 1.29071 
-46.558 -46.558 -55 -16.3049 -55 -55 
-35.0744 -35.0744 -3.84378 -55 -148.259 -6.99688 
-3.26284 -3.26284 -55 -115.84 -55 -55 
-55 -55 -4.28906 -37.1649 -147.786 -8.45113 
-55.6695 -55.6695 -55 -29.1527 -55 -55 
-55.6809 -55.6809 -4.6386 -17.6764 -147.415 -9.59273 
-54.744 -54.744 -55 -55 -55 -55 
-52.4015 -52.4015 -55 -144.026 -98.8717 -55 
-47.6361 -47.6361 -50.349 -55 -91.2833 -42.2533 
-37.496 -37.496 -30.2581 -117.806 -19.5045 1.86529 
-10.7498 -10.7498 -13.8582 -6.05784 -55 -55 
-55 -55 -55 -55 -113.114 -49.0153 
-55.4171 -55.4171 -55 -106.756 -41.5402 24.7945 
-55.0608 -55.0608 -48.0522 -16.8411 -66.6853 -55 
-53.572 -53.572 -65.208 -55 -74.6811 -78.7665 
-50.2845 -50.2845 -46.5357 -120.156 -28.2787 -39.2284 
-43.5123 -43.5123 -57.3769 0.0956218 11.8012 -38.52 
-27.7359 -27.7359 -75.7206 -55 -55 -35.0214 
22.2885 22.2885 -0.529535 -170.697 -64.7558 -55 
-55 -55 -55 -55 -75.8049 -73.8927 
-56.5078 -56.5078 -55 -107.362 -98.4076 2.52239 
-57.7036 -57.7036 -41.9371 -15.8316 -89.39 -55 
-58.3645 -58.3645 -45.0257 -55 -67.597 -73.8535 
-58.2858 -58.2858 -9.63248 -120.609 -24.113 -35.3217 
-57.2862 -57.2862 -55 1.33437 29.6678 -22.8727 
-55.1064 -55.1064 -40.8726 -55 -55 -55 
-51.1294 -51.1294 -55 -171.049 -63.998 10.3841 
-43.5937 -43.5937 -41.7332 -55 -108.185 -55 
-26.515 -26.515 -2.54356 -120.059 14.0142 -22.0923 
28.2495 28.2495 -55 -0.165548 -55 23.2039 
-55 -55 1.95859 -55 -147.219 -55 
-55.6434 -55.6434 -55 -131.902 -55 -23.5138 
-55.617 -55.617 0.265804 21.0617 -146.97 -55 
-54.6245 -54.6245 -55 -55 -55 -76.9522 
-52.1905 -52.1905 -55 -148.105 -98.5223 29.9574 
-47.2406 -47.2406 -46.884 -55 -91.6313 -55 
-36.6183 -36.6183 -19.8263 -121.008 -18.772 -24.082 
-8.09019 -8.09019 30.5541 2.43616 -55 13.15 
-55 -55 -55 -55 -112.903 -55 
-55.5072 -55.5072 -55 -109.23 -41.9935 13.2147 
-55.2827 -55.2827 -47.2798 -12.5365 -67.7241 -55 
-53.9948 -53.9948 -62.824 -55 -75.168 -78.8054 
-51.0602 -51.0602 -43.8345 -122.012 -28.1108 -39.2517 
-45.0637 -45.0637 -50.4479 5.26773 12.5956 -38.6171 
-31.5656 -31.5656 -63.6615 -55 -55 -35.3313 
8.41693 8.41693 4.75185 -172.138 -64.645 -55 
-55 -55 -55 -55 -75.614 -73.9046 
-56.0567 -56.0567 -55 -108.493 -98.3315 2.51065 
-56.622 -56.622 -42.1837 -13.8705 -89.4588 -55 
-56.467 -56.467 -45.8975 -55 -67.4534 -73.8616 
-55.3248 -55.3248 -11.8861 -121.457 -23.9677 -35.3297 
-52.7612 -52.7612 -55 3.69399 30.3104 -22.9045 
-47.7554 -47.7554 -40.9534 -55 -55 -55 
-37.2745 -37.2745 -55 -171.707 -63.9769 10.3799 
-9.64623 -9.64623 -41.7966 -55 -108.148 -55 
-55 -55 -2.76941 -120.576 13.9309 -22.0956 
-55.0957 -55.0957 -55 -9.74288 -55 23.187 
-54.264 -54.264 1.9194 -55 -147.204 -55 
-52.0233 -52.0233 -55 -121.042 -55 -23.5157 
-47.3267 -47.3267 0.23504 -23.7688 -146.958 -55 
-37.1663 -37.1663 -55 25.4749 -55 -76.9537 
-10.0801 -10.0801 -1.08718 -55 -146.765 -22.6627 
-55 -55 -55 -122.211 -55 -55 
-55.7037 -55.7037 -55 -31.4456 -180.709 -7.4185 
-55.7645 -55.7645 -47.8399 18.8574 -55 -55 
-54.8998 -54.8998 -20.4707 -55 -111.936 -46.665 
-52.6751 -52.6751 -55 -122.616 23.7838 -5.86617 
-48.1437 -48.1437 -45.9946 30.418 -55 -55 
-38.6044 -38.6044 -14.6641 -55 -114.279 -46.2543 
-14.0202 -14.0202 -55 -123.487 28.8191 -4.55902 
-55 -55 -44.836 32.9833 -55 -55 
-55.3056 -55.3056 -55 -55 -150.156 -45.9969 
-54.7853 -54.7853 -3.08692 -100.761 -55 34.1502 
-53.042 -53.042 -55 -108.237 -115.254 -55 
-49.2929 -49.2929 -45.8951 -14.9538 -50.9155 -38.985 
-41.4608 -41.4608 -58.4301 -55 -56.238 -38.8228 
-22.3782 -22.3782 -37.6953 -121.761 -16.3912 15.8096 
-55 -55 -32.7653 4.55267 -55 -55 
-55.33 -55.33 -55 -55 -148.369 -45.8069 
-54.8457 -54.8457 0.405175 -98.8301 -55 34.7635 
-53.1587 -53.1587 -55 -110.329 -113.851 -55 
-49.513 -49.513 -43.1538 -7.70045 -54.0922 -38.8661 
-41.9228 -41.9228 -49.2796 -55 -60.8538 -38.3727 
-23.6138 -23.6138 -20.0642 -120.667 -21.3964 17.2139 
-55 -55 33.9947 1.49453 -55 -55 
-55.2925 -55.2925 -55 -55 -147.273 -45.7765 
-54.7527 -54.7527 -0.277079 -97.9812 -55 34.8618 
-52.979 -52.979 -55 -111.155 -112.99 -55 
-49.1735 -49.1735 -43.6893 -4.67368 -55.9627 -38.8471 
-41.2088 -41.2088 -51.1146 -55 -63.167 -38.3006 
-21.697 -21.697 -24.1257 -120.185 -23.1455 17.4401 
-55 -55 16.4722 0.174887 31.3364 -55 
-55.3507 -55.3507 -55 -55 -55 -75.8568 
-54.8969 -54.8969 -55 -147.313 -99.6372 30.8201 
-53.2574 -53.2574 -43.8461 -55 -90.4869 -55 
-49.6984 -49.6984 -9.88989 -120.386 -21.1175 -23.3296 
-42.309 -42.309 -55 0.723192 -55 16.9143 
-24.6338 -24.6338 0.649455 -55 -147.285 -55 
34.3842 34.3842 -55 -121.17 -55 -24.2308 
-55 -55 -0.761867 -23.4127 -147.022 -55 
-56.8949 -56.8949 -55 15.8539 -55 -77.515 
-58.6187 -58.6187 -1.86975 -55 -146.815 -23.0675 
-59.9011 -59.9011 -55 -122.06 -55 -55 
-60.487 -60.487 -2.73945 -20.8947 -146.653 -7.80495 
-60.2229 -60.2229 -55 -55 -55 -55 
-59.0364 -59.0364 -55 -148.111 -98.2734 -55 
-56.7948 -56.7948 -49.0072 -55 -91.8732 -40.9902 
-53.0564 -53.0564 -26.3325 -121.012 -18.2524 6.37476 
-46.5014 -46.5014 1.86267 2.44916 -55 -55 
-32.873 -32.873 -55 -55 -112.752 -48.2357 
5.82629 5.82629 -4.31854 -98.2488 -8.21854 27.1411 
-55 -55 -55 -61.1947 -55 -55 
-54.4366 -54.4366 -55 -110.239 -181.858 -10.3064 
-52.6037 -52.6037 -48.4247 -6.41175 -55 -55 
-48.6415 -48.6415 -22.2541 -55 -112.837 -48.932 
-40.2287 -40.2287 -55 -119.451 25.6695 -12.8397 
-19.1399 -19.1399 -46.3632 21.6111 -55 -55 
-55 -55 -15.8457 -55 -114.963 -47.6816 
-55.5426 -55.5426 -55 -132.016 -3.7232 -9.04437 
-55.3698 -55.3698 -45.0669 -55 -55 -55 
-54.1598 -54.1598 30.1155 -170.489 -67.4787 5.7258 
-51.3593 -51.3593 -55 -55 -80.1906 -55 
-45.6493 -45.6493 -3.54252 -96.2135 -65.3979 12.1338 
-32.9618 -32.9618 -55 -62.9828 -75.7262 -55 
3.65154 3.65154 -46.2527 -49.7967 -112.023 -41.7711 
-55 -55 -59.5797 -52.5988 -22.2822 -49.0471 
-55.8996 -55.8996 4.31787 -68.3741 1.97221 -64.4058 
-56.2417 -56.2417 -55 -75.1442 -55 -84.9975 
-55.7787 -55.7787 0.448993 -102.3 -146.267 -15.4622 
-54.1839 -54.1839 -55 -45.2107 -55 -55 
-50.8392 -50.8392 -0.91923 -64.2663 -146.223 -4.69981 
-44.1501 -44.1501 -55 -68.8775 -55 -55 
-28.9103 -28.9103 -1.99328 -97.8312 -146.188 -6.64794 
18.2933 18.2933 -55 -51.6552 -55 -55 
-55 -55 -2.83642 -75.81 -146.16 -8.17722 
-56.0654 -56.0654 -55 -82.3461 -55 -55 
-56.6431 -56.6431 -3.49828 -94.9944 -146.139 -9.3777 
-56.5048 -56.5048 -55 -54.2181 -55 -55 
-55.3865 -55.3865 -4.01784 -78.3378 -146.122 -10.3201 
-52.8623 -52.8623 -55 -69.0809 -55 -55 
-47.937 -47.937 -4.42569 -94.0139 -146.109 -11.0599 
-37.6685 -37.6685 -55 -54.5157 -55 -55 
-10.824 -10.824 -4.74586 -77.7445 -146.098 -11.6406 
-55 -55 -55 -68.2418 -55 -55 
-55.0533 -55.0533 -55 -103.703 -180.185 -12.0964 
-54.1582 -54.1582 -50.4248 -11.853 -55 -55 
-51.8142 -51.8142 -28.1462 -55 -111.525 -50.3372 
-46.9131 -46.9131 -55 -110.329 22.9459 -16.9558 
-36.2246 -36.2246 -47.6289 0.710952 -55 -55 
-7.18745 -7.18745 -19.8204 -55 -113.968 -48.5715 
-55 -55 -55 -114.064 28.1248 -11.7583 
-55.7915 -55.7915 -55 -2.52182 -55 -55 
-55.9787 -55.9787 -3.43768 -55 -149.53 -9.57112 
-55.2964 -55.2964 -55 -116.622 -55 -55 
-53.3633 -53.3633 -3.97027 -35.2896 -148.784 -10.4719 
-49.3949 -49.3949 -55 -12.9644 -55 -55 
-41.2498 -41.2498 -4.38835 -55 -148.198 -11.179 
-21.4292 -21.4292 -55 -118.18 -55 -55 
-55 -55 -4.71655 -31.4061 -147.739 -11.7341 
-55.0499 -55.0499 -55 -12.2325 -55 -55 
-54.1497 -54.1497 -4.97418 -55 -147.378 -12.1699 
-51.7973 -51.7973 -55 -119.277 -55 -55 
-46.8797 -46.8797 -5.17642 -28.557 -147.094 -12.5119 
-36.1479 -36.1479 -55 8.15298 -55 -55 
-6.94879 -6.94879 -5.33518 -55 -146.872 -12.7805 
-55 -55 -55 -120.548 -55 -55 
-55.7987 -55.7987 -55 -36.1195 -180.793 -12.9913 
-55.9963 -55.9963 -50.8411 4.75114 -55 -55 
-55.3289 -55.3289 -29.3325 -55 -112.001 -51.0396 
-53.4191 -53.4191 30.8604 -121.101 23.9192 -18.9542 
-49.4948 -49.4948 -55 2.695 -55 33.3378 
-41.4558 -41.4558 -3.81267 -55 -148.036 -55 
-21.9828 -21.9828 -55 -121.724 -55 -26.7071 
-55 -55 -4.26464 -21.8524 -147.611 -55 
-55.0306 -55.0306 -55 21.9556 -55 -79.4589 
-54.1016 -54.1016 -4.61943 -55 -147.277 -24.2748 
-51.7017 -51.7017 -55 -122.6 -55 -55 
-46.6895 -46.6895 -4.89794 -19.3361 -147.016 -9.14815 
-35.7098 -35.7098 -55 -55 -55 -55 
-5.57614 -5.57614 -55 -148.532 -98.5583 -55 
-55 -55 -50.5322 -55 -91.5959 -41.9392 
-55.8404 -55.8404 -55 -132.328 -52.9427 2.97477 
-56.0976 -56.0976 -49.316 -55 -90.7602 -55 
-55.5152 -55.5152 -27.2486 -121.027 -17.8524 -26.2873 
-53.7378 -53.7378 -1.9129 2.49025 -55 2.37639 
-50.0604 -50.0604 -55 -55 -111.286 -55 
-42.6066 -42.6066 -4.39986 -98.2603 -11.2404 11.926 
-25.0125 -25.0125 -55 -61.1837 -55 -55 
33.2279 33.2279 -2.83878 -99.2506 -146.651 -11.8491 
-55 -55 -55 -55.9744 -55 -55 
-56.5628 -56.5628 -55 -100.373 -180.62 -12.2602 
-57.8343 -57.8343 -49.0774 -27.7526 -55 -55 
-58.5878 -58.5878 -24.212 -35.6242 -111.865 -50.4657 
-58.6166 -58.6166 10.2433 -13.4777 -24.6122 -69.9434 
-57.7506 -57.7506 -55 -55 24.7766 -90.8342 
-55.7714 -55.7714 -4.62039 -94.3118 -55 11.108 
-52.1725 -52.1725 -55 -114.06 -114.44 -55 
-45.5277 -45.5277 -47.0988 6.94745 -52.7768 -36.9335 
-31.1854 -31.1854 -62.2584 -55 -59.0471 -30.8972 
11.0899 11.0899 -43.1288 -118.077 -19.6706 -55 
-55 -55 -48.5547 -5.37032 -55 -74.5229 
-55.0416 -55.0416 -55 -55 -147.72 -58.5014 
-54.129 -54.129 0.310808 -95.9793 -55 15.017 
-51.7563 -51.7563 -55 -112.873 -113.342 -55 
-46.7982 -46.7982 -43.2278 1.9867 -55.2059 -35.2884 
-35.9605 -35.9605 -49.5348 -55 -62.2673 -24.2987 
-6.36353 -6.36353 -20.6448 -119.04 -22.5287 -55 
-55 -55 31.4105 -2.8814 33.6472 -73.5256 
-55.8165 -55.8165 -55 -55 -55 -87.6111 
-56.0396 -56.0396 -55 -146.428 -99.9219 -55 
-55.4085 -55.4085 -44.0438 -55 -90.1788 -33.458 
-53.5555 -53.5555 -10.559 -119.691 -21.719 -55 
-49.7379 -49.7379 -55 -1.15563 -55 -72.8221 
-41.9535 -41.9535 0.526504 -55 -147.458 -18.9072 
-23.3061 -23.3061 -55 -120.632 -55 -55 
-55 -55 -0.858383 -24.9041 -147.158 -4.59344 
-54.9844 -54.9844 -55 10.21 -55 -55 
-53.986 -53.986 -1.94552 -55 -146.922 -6.56444 
-51.4717 -51.4717 -55 -121.543 -55 -55 
-46.2289 -46.2289 -2.79892 -22.3645 -146.736 -8.11167 
-34.6371 -34.6371 -55 30.916 -55 -55 
-2.15105 -2.15105 -3.46884 -55 -146.591 -9.32625 
-55 -55 -55 -122.697 -55 -55 
-55.9441 -55.9441 -55 -30.0376 -180.572 -10.2797 
-56.3496 -56.3496 -49.5226 23.4611 -55 -55 
-55.9751 -55.9751 -25.5279 -55 -111.828 -48.911 
-54.5132 -54.5132 -55 -123.072 23.5637 -12.7771 
-51.4042 -51.4042 -47.0569 31.7526 -55 -55 
-45.24 -45.24 -18.0402 -55 -114.198 -47.6684 
-31.5479 -31.5479 -55 -123.843 28.6369 -9.00351 
8.87756 8.87756 -45.5022 34.0472 -55 -55 
-55 -55 -13.0686 -55 -115.999 -46.8848 
-55.7453 -55.7453 -55 -135.43 -1.30221 -6.56043 
-55.866 -55.866 -44.528 -55 -55 -55 
-55.0881 -55.0881 31.9025 -173.169 -68.2707 6.22665 
-53.0032 -53.0032 -55 -55 -81.3548 -55 
-48.7449 -48.7449 -3.20648 -98.317 -65.482 12.527 
-39.8909 -39.8909 -55 -61.1291 -76.3209 -55 
-17.6933 -17.6933 -45.9889 -49.5284 -112.45 -41.4624 
-55 -55 -58.7328 -53.5875 -21.4243 -47.9451 
-55.1794 -55.1794 5.59835 -71.4929 5.25864 -61.8269 
-54.4723 -54.4723 -55 -77.631 -55 -82.3552 
-52.4328 -52.4328 0.565659 -103.046 -146.661 -17.1892 
-48.1266 -48.1266 -55 -44.4164 -55 -55 
-38.9499 -38.9499 -0.827647 -63.1016 -146.532 -4.62943 
-15.3659 -15.3659 -55 -68.5212 -55 -55 
-55 -55 -1.92139 -98.309 -146.43 -6.59269 
-55.5432 -55.5432 -55 -62.3592 -55 -55 
-55.3711 -55.3711 -2.77998 -91.7462 -146.351 -8.13385 
-54.1622 -54.1622 -55 -60.3777 -55 -55 
-51.3636 -51.3636 -3.45397 -88.3894 -146.288 -9.34366 
-45.6578 -45.6578 -55 -63.3973 -55 -55 
-32.9818 -32.9818 -3.98306 -90.7167 -146.239 -10.2934 
3.58414 3.58414 -55 -59.8561 -55 -55 
-55 -55 -4.39839 -86.1214 -146.201 -11.0389 
-55.8974 -55.8974 -55 -75.137 -55 -55 
-56.2362 -56.2362 -4.72443 -94.8353 -146.17 -11.6241 
-55.7688 -55.7688 -55 -52.5666 -55 -55 
-54.1673 -54.1673 -4.98036 -73.7724 -146.147 -12.0835 
-50.8105 -50.8105 -55 -67.9681 -55 -55 
-44.094 -44.094 -5.18127 -92.2032 -146.128 -12.4441 
-28.7718 -28.7718 -55 -56.0559 -55 -55 
18.8029 18.8029 -5.33899 -79.2441 -146.113 -12.7272 
-55 -55 -55 -66.9476 -55 -55 
-56.0826 -56.0826 -55 -102.112 -180.197 -12.9495 
-56.6846 -56.6846 -50.8438 -14.6964 -55 -55 
-56.5791 -56.5791 -29.3401 29.0534 -111.534 -51.0068 
-55.5073 -55.5073 -10.9271 -55 -25.2869 -71.4807 
-53.0593 -53.0593 -55 -112.129 -55 -39.1674 
-48.2888 -48.2888 -2.76953 -45.3993 -146.475 29.5604 
-38.424 -38.424 -55 -37.4659 -55 -55 
-13.0477 -13.0477 -3.44577 -42.575 -146.386 -8.7507 
-55 -55 -55 -30.8729 -55 -55 
-54.9728 -54.9728 -55 -32.468 -180.411 -9.82788 
-53.9571 -53.9571 -49.5063 22.2731 -55 -55 
-51.414 -51.414 -25.4799 -55 -111.702 -48.5563 
-46.1126 -46.1126 -55 -117.06 23.3058 -11.7127 
-34.3637 -34.3637 -47.0466 15.4887 -55 -55 
-1.26321 -1.26321 -18.0078 -55 -114.102 -47.4444 
-55 -55 -55 -119.189 28.4233 -8.31023 
-55.971 -55.971 -55 9.93174 -55 -55 
-56.4147 -56.4147 -3.10823 -55 -149.632 -8.86106 
-56.0932 -56.0932 -55 -120.554 -55 -55 
-54.7097 -54.7097 -3.71165 -25.1176 -148.864 -9.91452 
-51.7374 -51.7374 -55 20.4026 -55 -55 
-45.871 -45.871 -4.18533 -55 -148.261 -10.7415 
-33.0318 -33.0318 -55 -121.743 -55 -55 
3.82543 3.82543 -4.55718 -21.7965 -147.788 -11.3907 
-55 -55 -55 33.1632 -55 -55 
-55.571 -55.571 -55 -55 -181.512 -11.9002 
-55.4394 -55.4394 -8.53391 -99.4872 -55 -55 
-54.2911 -54.2911 -55 -109.651 -112.566 -50.1831 
-51.5958 -51.5958 -50.1709 -10.1156 -56.8635 -31.2485 
-46.1076 -46.1076 -71.5031 -55 -64.1732 -15.0675 
-34.0354 -34.0354 -51.5451 -121.04 -23.7351 -55 
0.0931658 0.0931658 -69.1199 2.52622 29.2195 -77.2947 
-55 -55 -87.8409 -55 -55 -90.8796 
-55.7815 -55.7815 -55 -182.368 -99.7046 4.24169 
-55.9544 -55.9544 -39.9107 -55 -90.0646 -55 
-55.2517 -55.2517 4.07966 -120.047 -21.3715 -21.3169 
-53.2862 -53.2862 -55 -0.198715 -55 27.2079 
-49.2566 -49.2566 3.08057 -55 -147.076 -55 
-40.9635 -40.9635 -55 -120.907 -55 -23.0661 
-20.6543 -20.6543 1.14656 -24.1439 -146.858 -55 
-55 -55 -55 24.0491 -55 -76.6007 
-55.0769 -55.0769 -55 -55 -180.782 -22.3952 
-54.217 -54.217 -4.50422 -98.6746 -55 -55 
-51.9305 -51.9305 -55 -110.485 -111.993 -45.0587 
-47.1436 -47.1436 -47.0076 -7.13767 -58.0574 -15.4123 
-36.751 -36.751 -61.9725 -55 -65.3983 -55 
-8.81327 -8.81327 -42.7624 -120.579 -24.3013 -22.347 
-55 -55 -47.5581 1.25162 27.3322 21.8992 
-55.7422 -55.7422 27.9983 -55 -55 -55 
-55.8584 -55.8584 -55 -171.025 -65.2074 6.42396 
-55.0741 -55.0741 -42.0142 -55 -110.28 -55 
-52.979 -52.979 -3.54111 -120.041 18.8006 -25.201 
-48.7008 -48.7008 -55 -0.215103 -55 7.63455 
-39.7975 -39.7975 1.78501 -55 -148.061 -55 
-17.4309 -17.4309 -55 -120.902 -55 -25.3209 
-55 -55 0.129542 -24.1569 -147.63 -55 
-55.1885 -55.1885 -55 13.0146 -55 -78.3708 
-54.4948 -54.4948 -1.17 -55 -147.293 -23.6362 
-52.4768 -52.4768 -55 -121.802 -55 -55 
-48.2118 -48.2118 -2.19014 -21.6306 -147.028 -8.39532 
-39.137 -39.137 -55 33.8247 -55 -55 
-15.9057 -15.9057 -2.99095 -55 -146.82 -9.54892 
-55 -55 -55 -122.951 -55 -55 
-55.5268 -55.5268 -55 -29.2947 -180.752 -10.4545 
-55.3308 -55.3308 -49.1849 25.9561 -55 -55 
-54.0859 -54.0859 -24.5313 -55 -111.969 -49.0482 
-51.2257 -51.2257 -55 -123.312 23.8529 -13.1862 
-45.3886 -45.3886 -46.8433 32.4635 -55 -55 
-32.3436 -32.3436 -17.3686 -55 -114.305 -47.7551 
5.74204 5.74204 -55 -124.031 28.8762 -9.27085 
-55 -55 -45.368 34.6132 -55 -55 
-55.9687 -55.9687 -55 -55 -150.176 -46.9394 
-56.4091 -56.4091 -3.50455 -101.185 -55 31.1507 
-56.083 -56.083 -55 -107.737 -115.269 -55 
-54.6928 -54.6928 -46.2229 -16.6065 -50.8801 -39.5759 
-51.7089 -51.7089 -59.4843 -55 -56.1818 -41.0431 
-45.8173 -45.8173 -39.3055 -122.001 -16.3184 9.11709 
-32.9069 -32.9069 -37.6724 5.23633 -55 -55 
4.2439 4.2439 12.5309 -55 -114.286 -45.9654 
-55 -55 -55 -122.423 28.8344 -3.63101 
-55.5855 -55.5855 -55 18.8727 -55 -55 
-55.475 -55.475 0.432894 -55 -149.772 -7.93307 
-54.3581 -54.3581 -55 -123.062 -55 -55 
-51.7161 -51.7161 -0.931867 -17.9817 -148.974 -9.18605 
-46.3389 -46.3389 -55 -55 -55 -55 
-34.571 -34.571 -55 -148.893 -100.096 -55 
-1.64778 -1.64778 -47.7302 -55 -89.9874 -41.966 
-55 -55 -22.4624 -121.626 -22.0863 2.87989 
-55.7235 -55.7235 -55 -6.81541 0.257703 -55 
-55.8129 -55.8129 -45.8673 -55 -55 -41.0399 
-54.9896 -54.9896 27.5041 -171.563 -66.3294 -55 
-52.832 -52.832 -55 -55 -78.4118 -78.774 
-48.4322 -48.4322 -4.04271 -97.0566 -65.1078 -1.35004 
-39.2253 -39.2253 -55 -62.2823 -74.7324 -55 
-15.8094 -15.8094 -46.6454 -49.7655 -111.358 -39.3225 
-55 -55 -60.8299 -53.1491 -23.6446 -40.0943 
-55.2443 -55.2443 2.52988 -69.9008 -3.185 -40.6894 
-54.6333 -54.6333 -55 -76.3439 -55 -40.8921 
-52.7471 -52.7471 0.27216 -102.626 -145.691 27.8364 
-48.7319 -48.7319 -55 -44.8226 -55 -55 
-40.2664 -40.2664 -1.05804 -63.6218 -145.77 -6.15693 
-19.1049 -19.1049 -55 -68.575 -55 -55 
-55 -55 -2.10225 -97.9363 -145.832 -7.79178 
-55.4295 -55.4295 -55 -62.6868 -55 -55 
-55.0914 -55.0914 -2.92196 -91.7569 -145.881 -9.07513 
-53.6306 -53.6306 -55 -60.0705 -55 -55 
-50.3928 -50.3928 -3.56543 -87.7625 -145.92 -10.0826 
-43.7317 -43.7317 -55 -63.8234 -55 -55 
-28.289 -28.289 -4.07055 -90.9139 -145.95 -10.8734 
20.2127 20.2127 -55 -59.424 -55 -55 
-55 -55 -4.46707 -85.4211 -145.974 -11.4942 
-56.4408 -56.4408 -55 -75.5988 -55 -55 
-57.544 -57.544 -4.77834 -94.7118 -145.992 -11.9815 
-58.0901 -58.0901 -55 -52.6515 -55 -55 
-57.8742 -57.8742 -5.02268 -73.8281 -146.007 -12.3641 
-56.697 -56.697 -55 -67.8847 -55 -55 
-54.2389 -54.2389 -5.2145 -92.0747 -146.018 -12.6644 
-49.7166 -49.7166 -55 -56.161 -55 -55 
-40.8359 -40.8359 -5.36507 -79.3423 -146.027 -12.9001 
-19.3349 -19.3349 -55 -66.8566 -55 -55 
-55 -55 -5.48327 -91.0134 -146.034 -13.0852 
-54.3259 -54.3259 -55 -68.1862 -55 -55 
-52.3217 -52.3217 -5.57605 -91.3797 -146.04 -13.2305 
-48.0461 -48.0461 -55 -56.3068 -55 -55 
-38.8879 -38.8879 -5.64889 -78.8727 -146.044 -13.3445 
-15.2891 -15.2891 -55 -66.3877 -55 -55 
-55 -55 -5.70607 -90.15 -146.048 -13.434 
-55.6293 -55.6293 -55 -68.78 -55 -55 
-55.5824 -55.5824 -5.75095 -91.2766 -146.05 -13.5043 
-54.5598 -54.5598 -55 -56.0552 -55 -55 
-52.0757 -52.0757 -5.78619 -78.1489 -146.052 -13.5595 
-47.0241 -47.0241 -55 -66.2867 -55 -55 
-36.1327 -36.1327 -5.81385 -89.8242 -146.054 -13.6028 
-6.59236 -6.59236 -55 -57.9576 -55 -55 
-55 -55 -5.83556 -81.0097 -146.055 -13.6368 
-55.5577 -55.5577 -55 -76.2864 -55 -55 
-55.4069 -55.4069 -5.8526 -92.7797 -146.056 -13.6634 
-54.2297 -54.2297 -55 -53.8396 -55 -55 
-51.4854 -51.4854 -5.86598 -74.4057 -146.057 -13.6844 
-45.8942 -45.8942 -55 -66.5546 -55 -55 
-33.5374 -33.5374 -5.87648 -89.9986 -146.058 -13.7008 
1.73204 1.73204 -55 -57.7344 -55 -55 
-55 -55 -5.88473 -80.6852 -146.058 -13.7137 
-55.836 -55.836 -55 -76.4275 -55 -55 
-56.0871 -56.0871 -5.8912 -92.7628 -146.059 -13.7239 
-55.4958 -55.4958 -55 -53.8586 -55 -55 
-53.7047 -53.7047 -5.89628 -74.4339 -146.059 -13.7318 
-50.0021 -50.0021 -55 -66.5518 -55 -55 
-42.4891 -42.4891 -5.90027 -89.9923 -146.059 -13.7381 
-24.708 -24.708 -55 -57.738 -55 -55 
34.4459 34.4459 -5.9034 -80.6869 -146.059 -13.743 
-55 -55 -55 -65.4384 -55 -55 
-56.6029 -56.6029 -55 -100.17 -180.155 -13.7468 
-57.9294 -57.9294 -51.2426 -18.0044 -55 -55 
-58.7496 -58.7496 -30.4633 14.1617 -111.501 -51.6327 
-58.8539 -58.8539 -15.2922 -55 -25.3543 -73.2298 
-58.0786 -58.0786 -55 -111.172 -55 -40.0288 
-56.2312 -56.2312 -2.88868 -47.3425 -146.45 26.7223 
-52.8734 -52.8734 -55 -41.1658 -55 -55 
-46.7785 -46.7785 -3.5393 -52.4132 -146.366 -8.98314 
-34.0457 -34.0457 -55 -51.7773 -55 -55 
1.44603 1.44603 -4.05004 -76.8833 -146.3 -10.0103 
-55 -55 -55 -72.0034 -55 -55 
-54.6918 -54.6918 -55 -108.435 -180.344 -10.8167 
-53.2507 -53.2507 -49.9332 -2.93657 -55 -55 
-49.9842 -49.9842 -26.7276 -55 -111.649 -49.3326 
-43.1521 -43.1521 -55 -112.749 23.1984 -14.0293 
-27.0443 -27.0443 -47.317 5.60558 -55 -55 
24.7146 24.7146 -18.853 -55 -114.062 -47.9349 
-55 -55 -55 -115.896 28.3343 -9.82331 
-56.7524 -56.7524 -55 1.688 -55 -55 
-58.2832 -58.2832 -3.26116 -55 -149.602 -9.16976 
-59.3451 -59.3451 -55 -118.021 -55 -55 
-59.7107 -59.7107 -3.8317 -31.8113 -148.84 -10.1568 
-59.2283 -59.2283 -55 -2.52906 -55 -55 
-57.7782 -57.7782 -4.27958 -55 -148.243 -10.9317 
-55.111 -55.111 -55 -119.409 -55 -55 
-50.5098 -50.5098 -4.63116 -28.2066 -147.773 -11.54 
-41.8308 -41.8308 -55 9.35583 -55 -55 
-21.469 -21.469 -4.90715 -55 -147.405 -12.0175 
-55 -55 -55 -120.67 -55 -55 
-53.8082 -53.8082 -55 -35.7839 -181.211 -12.3923 
-50.9888 -50.9888 -50.5387 5.70378 -55 -55 
-45.1504 -45.1504 -28.4722 -55 -112.33 -50.5694 
-31.976 -31.976 34.2703 -121.21 24.6002 -17.621 
6.8168 6.8168 -55 2.99941 -55 -55 
-55 -55 -3.725 -55 -148.285 -10.8361 
-56.1538 -56.1538 -55 -132.794 -55 -55 
-56.8562 -56.8562 -4.19581 24.3512 -147.806 -11.4649 
-56.8852 -56.8852 -55 -55 -55 -55 
-56.0007 -56.0007 -55 -148.818 -99.1789 -55 
-53.8528 -53.8528 -50.0362 -55 -90.9694 -43.576 
-49.6743 -49.6743 -29.3557 -121.567 -20.1507 -2.72029 
-41.3042 -41.3042 -10.3501 4.00378 -55 -55 
-21.1059 -21.1059 -55 -55 -113.301 -49.8352 
-55 -55 -4.59943 -98.6795 -7.04318 22.3793 
-54.6759 -54.6759 -55 -71.7592 -55 -55 
-53.2105 -53.2105 -2.99545 -106.795 -148.179 -11.3174 
-49.9019 -49.9019 -55 -39.0926 -55 -55 
-42.9769 -42.9769 -3.62311 -52.1332 -147.724 -11.8427 
-26.5894 -26.5894 -55 -56.2735 -55 -55 
26.4702 26.4702 -4.11583 -88.9393 -147.366 -12.2551 
-55 -55 -55 -68.3211 -55 -55 
-56.8049 -56.8049 -55 -110.261 -181.181 -12.5789 
-58.4069 -58.4069 -49.9797 -0.935798 -55 -55 
-59.5511 -59.5511 -26.8625 -55 -112.306 -50.7159 
-60.001 -60.001 -55 -115.203 24.5501 -18.0381 
-59.6054 -59.6054 -47.3465 11.0489 -55 -55 
-58.264 -58.264 -18.9448 -55 -114.56 -48.812 
-55.7755 -55.7755 -55 -117.766 29.4518 -12.4809 
-51.5414 -51.5414 -45.6841 17.2478 -55 -55 
-43.7857 -43.7857 -13.6605 -55 -116.275 -47.6058 
-26.4562 -26.4562 -55 -119.731 33.4536 -8.81027 
28.9682 28.9682 -44.6418 22.3583 -55 -55 
-55 -55 -10.2343 -55 -117.587 -46.8455 
-55.2654 -55.2654 -55 -132.233 2.57766 -6.4364 
-54.6857 -54.6857 -43.991 -55 -55 -55 
-52.849 -52.849 33.7064 -170.659 -69.4895 6.25136 
-48.9265 -48.9265 -55 -55 -83.0485 -55 
-40.6834 -40.6834 -2.87218 -96.347 -65.463 12.5464 
-20.2607 -20.2607 -55 -62.8757 -77.1252 -55 
-55 -55 -45.7265 -49.798 -113.076 -41.4472 
-55.3944 -55.3944 27.6376 -63.6838 -54.2705 -47.8905 
-55.0047 -55.0047 -55 -72.4264 -58.8352 -61.6967 
-53.4646 -53.4646 -45.7042 -53.0304 -98.819 -44.3251 
-50.0853 -50.0853 -57.8124 -56.4144 -52.3434 -49.6779 
-43.1064 -43.1064 -78.4688 -61.5061 -53.03 -60.3279 
-26.7023 -26.7023 -87.8302 -67.5969 -54.0909 -76.0258 
26.2333 26.2333 -79.4341 -72.1625 -55.745 -83.1227 
-55 -55 -82.9346 -73.4072 -58.2268 -78.8085 
-56.6346 -56.6346 6.17765 -83.9361 -95.6995 -79.1446 
-58.0047 -58.0047 -55 -69.2177 -55.4774 -77.595 
-58.8771 -58.8771 -35.9881 -46.8286 -89.9234 -38.8231 
-59.0396 -59.0396 -22.5206 -39.4394 -62.5207 -23.4871 
-58.3325 -58.3325 27.5053 -20.8133 -64.3087 30.3597 
-56.5814 -56.5814 -55 -55 -65.849 -55 
-53.3961 -53.3961 3.23286 -90.7213 -52.3763 24.7366 
-47.6858 -47.6858 -55 -66.1539 -49.6247 -55 
-36.0418 -36.0418 -40.934 -48.1318 -78.229 -31.8779 
-4.89423 -4.89423 -41.4295 -45.1715 -70.0932 -9.92887 
-55 -55 -41.4618 -38.35 -69.0405 -55 
-54.4558 -54.4558 -55 -31.1727 -102.426 -71.4753 
-52.6527 -52.6527 -39.52 26.1736 -73.1697 -47.473 
-48.7443 -48.7443 -36.2231 -55 -68.4001 -53.6712 
-40.4576 -40.4576 16.4727 -117.651 -18.3572 -12.0802 
-19.783 -19.783 -55 -6.44583 -55 -55 
-55 -55 3.90062 -55 -139.256 -1.81799 
-55.5284 -55.5284 -55 -130.044 -55 -55 
-55.3348 -55.3348 1.7903 14.414 -140.719 -4.38571 
-54.0934 -54.0934 -55 -55 -55 -55 
-51.2392 -51.2392 -55 -146.626 -93.6151 -55 
-45.4151 -45.4151 -45.807 -55 -95.4859 -38.5745 
-32.4066 -32.4066 -16.3879 -119.847 -9.19709 15.3549 
5.5277 5.5277 -55 -0.738048 -55 -55 
-55 -55 -0.573434 -55 -143.642 -8.87068 
-55.9616 -55.9616 -55 -131.737 -55 -55 
-56.392 -56.392 -1.72183 20.4626 -144.162 -9.92207 
-56.052 -56.052 -55 -55 -55 -55 
-54.6413 -54.6413 -55 -147.974 -96.3178 -55 
-51.6217 -51.6217 -48.2883 -55 -93.6012 -42.486 
-45.6528 -45.6528 -24.1698 -120.905 -14.2653 1.04849 
-32.5223 -32.5223 11.0344 2.15048 -55 -55 
5.53999 5.53999 -55 -55 -111.569 -49.1593 
-55 -55 -4.13935 -98.1654 -10.67 24.3665 
-55.6303 -55.6303 -55 -72.2598 -55 -55 
-55.585 -55.585 -2.63428 -106.511 -146.866 -10.8895 
-54.5646 -54.5646 -55 -39.4356 -55 -55 
-52.0842 -52.0842 -3.3396 -52.7826 -146.692 -11.5069 
-47.0402 -47.0402 -55 -57.138 -55 -55 
-36.1689 -36.1689 -3.89327 -89.9124 -146.556 -11.9915 
-6.70478 -6.70478 -55 -66.9135 -55 -55 
-55 -55 -4.32791 -98.1643 -146.45 -12.3719 
-55.5539 -55.5539 -55 -63.3812 -55 -55 
-55.3976 -55.3976 -4.6691 -93.4191 -146.366 -12.6705 
-54.2121 -54.2121 -55 -58.6122 -55 -55 
-51.4537 -51.4537 -4.93693 -86.6864 -146.3 -12.905 
-45.8329 -45.8329 -55 -65.5879 -55 -55 
-33.3938 -33.3938 -5.14718 -93.0349 -146.249 -13.089 
2.20856 2.20856 -55 -57.1007 -55 -55 
-55 -55 -5.31222 -82.7584 -146.208 -13.2334 
-55.8518 -55.8518 -55 -77.9966 -55 -55 
-56.1255 -56.1255 -5.44179 -94.8489 -146.176 -13.3468 
-55.5663 -55.5663 -55 -52.8083 -55 -55 
-53.8247 -53.8247 -5.54349 -74.4406 -146.151 -13.4359 
-50.2135 -50.2135 -55 -68.2228 -55 -55 
-42.9137 -42.9137 -5.62333 -92.5135 -146.132 -13.5057 
-25.8032 -25.8032 -55 -55.7713 -55 -55 
30.0999 30.0999 -5.686 -78.9334 -146.116 -13.5606 
-55 -55 -55 -67.1678 -55 -55 
-56.4595 -56.4595 -55 -102.366 -180.2 -13.6036 
-57.5887 -57.5887 -51.089 -14.2396 -55 -55 
-58.167 -58.167 -30.0322 31.1843 -111.536 -51.5203 
-57.9903 -57.9903 -13.6282 -55 -25.2835 -72.918 
-56.8644 -56.8644 -55 -112.258 -55 -39.8925 
-54.4881 -54.4881 -2.84232 -45.1305 -146.476 27.1759 
-50.1285 -50.1285 -55 -36.9282 -55 -55 
-41.6564 -41.6564 -3.50291 -41.047 -146.387 -8.93954 
-21.5349 -21.5349 -55 -26.9179 -55 -55 
-55 -55 -4.02147 -7.02503 -146.317 -9.97612 
-54.2399 -54.2399 -55 -55 -55 -55 
-52.1017 -52.1017 -55 -142.516 -98.0095 -55 
-47.5774 -47.5774 -49.913 -55 -92.1242 -42.5242 
-37.8133 -37.8133 -28.9983 -116.62 -17.704 0.914839 
-12.1006 -12.1006 -8.94309 -8.99337 -55 -55 
-55 -55 -55 -55 -112.592 -49.183 
-55.7024 -55.7024 -55 -105.845 -42.6515 24.2964 
-55.7612 -55.7612 -47.9388 -18.3018 -69.2006 -55 
-54.8937 -54.8937 -64.8609 -55 -75.7045 -78.8725 
-52.6644 -52.6644 -46.17 -119.476 -27.843 -39.2914 
-48.1239 -48.1239 -56.4673 -1.73007 13.8406 -38.7833 
-38.5616 -38.5616 -74.35 -55 -55 -35.8602 
-13.8957 -13.8957 -0.506505 -170.171 -64.4897 -55 
-55 -55 -55 -55 -75.3447 -73.9252 
-55.3099 -55.3099 -55 -106.949 -98.2199 2.49033 
-54.7958 -54.7958 -41.9458 -16.5222 -89.5635 -55 
-53.0624 -53.0624 -45.0564 -55 -67.2419 -73.8757 
-49.3314 -49.3314 -9.71286 -120.3 -23.7546 -35.3436 
-41.542 -41.542 -55 0.488886 31.2518 -22.9597 
-22.5965 -22.5965 -40.8754 -55 -55 -55 
-55 -55 -55 -170.809 -63.9486 10.3727 
-55.3234 -55.3234 -55 -55 -142.193 -55 
-54.8292 -54.8292 -2.05335 -96.4648 -55 15.7816 
-53.127 -53.127 -55 -112.486 -111.403 -55 
-49.4533 -49.4533 -45.0837 0.437828 -59.2587 -38.9075 
-41.7979 -41.7979 -55.7844 -55 -66.5057 -38.5298 
-23.2815 -23.2815 -33.2713 -119.318 -24.6559 16.722 
-55 -55 -18.2725 -2.14709 26.329 -55 
-55.3026 -55.3026 -55 -55 -55 -75.8722 
-54.7777 -54.7777 -55 -146.643 -98.5326 30.8074 
-53.0274 -53.0274 -43.5122 -55 -91.6212 -55 
-49.2652 -49.2652 -8.75271 -119.86 -18.7936 -23.3402 
-41.4025 -41.4025 -55 -0.702349 -55 16.8613 
-22.2211 -22.2211 0.856932 -55 -146.615 -55 
-55 -55 -55 -120.762 -55 -24.2369 
-55.3348 -55.3348 -55 -35.5291 -180.591 -55 
-54.8575 -54.8575 -46.4664 6.4332 -55 -39.6369 
-53.1814 -53.1814 -16.1747 -55 -111.843 -11.1859 
-49.5558 -49.5558 -55 -121.292 23.5946 -55 
-42.0123 -42.0123 -45.1316 26.6374 -55 -39.0428 
-23.8513 -23.8513 -11.8551 -55 -114.209 -8.95635 
-55 -55 -55 -122.458 28.6626 -55 
-55.2852 -55.2852 -55 18.9732 -55 -38.6789 
-54.7349 -54.7349 -2.029 -55 -149.714 30.3064 
-52.9444 -52.9444 -55 -123.089 -55 -55 
-49.1079 -49.1079 -2.86445 -17.9021 -148.928 -9.31817 
-41.0696 -41.0696 -55 -55 -55 -55 
-21.3186 -21.3186 -55 -148.914 -100.06 -55 
-55 -55 -49.0956 -55 -90.0273 -42.0593 
-55.3622 -55.3622 -55 -132.628 -56.1056 2.54955 
-54.9253 -54.9253 -48.1882 -55 -97.0412 -55 
-53.3121 -53.3121 -23.8655 -121.263 -9.26607 -26.3615 
-49.8009 -49.8009 12.3542 3.14726 -55 2.02051 
-42.5213 -42.5213 -55 -55 -112.097 -55 
-25.1895 -25.1895 -4.11556 -98.443 -9.58931 11.8824 
32.161 32.161 -55 -61.0069 -55 -55 
-55 -55 -2.6156 -99.1973 -147.266 -11.8833 
-56.8242 -56.8242 -55 -67.1965 -55 -55 
-58.4523 -58.4523 -3.32494 -101.553 -147.006 -12.287 
-59.6264 -59.6264 -55 -48.5381 -55 -55 
-60.1063 -60.1063 -3.88177 -73.3176 -146.803 -12.6039 
-59.7407 -59.7407 -55 -74.6976 -55 -55 
-58.4356 -58.4356 -4.31887 -100.293 -146.643 -12.8526 
-56.0059 -56.0059 -55 -47.6403 -55 -55 
-51.8911 -51.8911 -4.66201 -68.257 -146.518 -13.0479 
-44.4288 -44.4288 -55 -70.1997 -55 -55 
-28.0295 -28.0295 -4.93136 -96.9883 -146.419 -13.2012 
22.9877 22.9877 -55 -51.8547 -55 -55 
-55 -55 -5.14281 -75.0217 -146.342 -13.3215 
-55.0558 -55.0558 -55 -81.3239 -55 -55 
-54.1643 -54.1643 -5.30879 -94.6294 -146.281 -13.416 
-51.8261 -51.8261 -55 -53.9906 -55 -55 
-46.9369 -46.9369 -5.43909 -77.2413 -146.234 -13.4901 
-36.2791 -36.2791 -55 -68.6868 -55 -55 
-7.35688 -7.35688 -5.54138 -93.2735 -146.196 -13.5483 
-55 -55 -55 -55.1372 -55 -55 
-55.7864 -55.7864 -55 -89.3165 -180.263 -13.594 
-55.9662 -55.9662 -50.9868 -36.5482 -55 -55 
-55.2733 -55.2733 -29.7443 -58.1692 -111.585 -51.5128 
-53.3235 -53.3235 -12.5093 -57.0996 -25.1833 -72.8971 
-49.3236 -49.3236 -55 -55.8164 22.7075 -92.5021 
-41.1024 -41.1024 -46.8987 -30.7156 -55 -39.9529 
-21.0312 -21.0312 -17.5432 -40.3249 -114.198 -8.05009 
-55 -55 -55 -21.7941 -19.6155 -55 
-55.0638 -55.0638 -55 -55 -23.7154 -35.8534 
-54.1843 -54.1843 -5.35404 -89.4564 -55 -55 
-51.8658 -51.8658 -55 -116.249 -114.823 -44.6174 
-47.0156 -47.0156 -47.6747 17.7889 -51.9071 -13.9504 
-36.4592 -36.4592 -64.049 -55 -57.7714 -55 
-7.91455 -7.91455 -45.2778 -115.211 -18.2697 -22.0718 
-55 -55 -54.2114 -12.3378 -55 23.3092 
-55.7694 -55.7694 -55 21.4369 -148.021 -55 
-55.9249 -55.9249 -41.5503 -55 -55 -38.238 
-55.1972 -55.1972 -55 -168.366 -65.3259 -55 
-53.1922 -53.1922 -42.2652 -55 -110.479 -38.6916 
-49.0873 -49.0873 -4.4269 -117.953 19.2706 14.9088 
-40.6109 -40.6109 -55 -5.68421 -55 -55 
-19.6911 -19.6911 1.62981 -55 -148.143 -8.94225 
-55 -55 -55 -119.291 -55 -55 
-55.1103 -55.1103 -55 -39.506 -181.791 -9.97825 
-54.3003 -54.3003 -45.9204 -4.3366 -55 -55 
-52.095 -52.095 -14.4249 -55 -112.785 -48.6744 
-47.4677 -47.4677 -55 -119.998 25.5575 -12.068 
-37.4843 -37.4843 -44.7896 23.0753 -55 -55 
-11.0412 -11.0412 -10.7253 -55 -114.923 -47.5189 
-55 -55 -55 -121.454 30.2803 -8.54133 
-55.6746 -55.6746 -55 16.1063 -55 -55 
-55.6932 -55.6932 -1.83694 -55 -150.259 -8.90792 
-54.7669 -54.7669 -55 -122.309 -55 -55 
-52.4419 -52.4419 -2.71368 -20.1787 -149.356 -9.9513 
-47.7113 -47.7113 -55 -55 -55 -55 
-37.6616 -37.6616 -55 -148.305 -100.396 -55 
-11.2447 -11.2447 -48.989 -55 -89.6518 -42.5066 
-55 -55 -26.2783 -121.165 -22.7196 0.976188 
-55.4003 -55.4003 -55 -8.11192 -2.62728 -55 
-55.0193 -55.0193 -46.6612 -55 -55 -41.3743 
-53.4925 -53.4925 24.9643 -171.205 -66.4214 -55 
-50.1372 -50.1372 -55 -55 -78.5581 -79.0365 
-43.2124 -43.2124 -4.54016 -96.7754 -65.1392 -1.50428 
-26.9733 -26.9733 -55 -62.5222 -74.8186 -55 
25.1904 25.1904 -47.0359 -49.7866 -111.414 -39.504 
-55 -55 -62.061 -52.9869 -23.5286 -40.7747 
-56.6012 -56.6012 0.888319 -69.4316 -2.7483 -42.7135 
-57.9254 -57.9254 -55 -75.9815 -55 -46.3952 
-58.7427 -58.7427 0.0926003 -102.525 -145.737 13.9822 
-58.8438 -58.8438 -55 -44.9326 -55 -55 
-58.0648 -58.0648 -1.199 -63.7889 -145.807 -5.72689 
-56.212 -56.212 -55 -68.635 -55 -55 
-52.8445 -52.8445 -2.2129 -97.8809 -145.861 -7.4542 
-46.7276 -46.7276 -55 -51.7242 -55 -55 
-33.9318 -33.9318 -3.00882 -76.0812 -145.904 -8.81013 
1.81763 1.81763 -55 -71.4669 -55 -55 
-55 -55 -3.63361 -96.7608 -145.937 -9.87454 
-54.7055 -54.7055 -55 -62.6215 -55 -55 
-53.2852 -53.2852 -4.12407 -89.7716 -145.964 -10.7101 
-50.0549 -50.0549 -55 -60.8472 -55 -55 
-43.3023 -43.3023 -4.50909 -87.1612 -145.984 -11.366 
-27.4321 -27.4321 -55 -63.0491 -55 -55 
23.2312 23.2312 -4.81132 -88.9762 -146.001 -11.8809 
-55 -55 -55 -60.6608 -55 -55 
-56.7081 -56.7081 -55 -96.9629 -180.109 -12.2851 
-58.1784 -58.1784 -50.471 -25.3944 -55 -55 
-59.1697 -59.1697 -28.2786 -18.6395 -111.465 -50.4853 
-59.4611 -59.4611 -6.71196 -55 -25.4272 -69.9994 
-58.899 -58.899 -55 -111.231 -55 -38.2532 
-57.3454 -57.3454 -2.66175 -47.2259 -146.423 32.546 
-54.5036 -54.5036 -55 -40.953 -55 -55 
-49.5362 -49.5362 -3.36116 -51.8796 -146.345 -8.57745 
-39.9075 -39.9075 -55 -50.8469 -55 -55 
-16.2615 -16.2615 -3.9102 -75.174 -146.283 -9.69189 
-55 -55 -55 -72.2158 -55 -55 
-54.0175 -54.0175 -55 -108.591 -180.331 -10.5667 
-51.5301 -51.5301 -49.8344 -2.60835 -55 -55 
-46.3428 -46.3428 -26.4401 -55 -111.639 -49.1363 
-34.9009 -34.9009 -55 -112.827 23.1774 -13.4481 
-2.99926 -2.99926 -47.2544 5.77254 -55 -55 
-55 -55 -18.6579 -55 -114.054 -47.8108 
-55.9163 -55.9163 -55 -126.941 -5.77854 -9.44225 
-56.2822 -56.2822 -45.6262 -55 -55 -55 
-55.8526 -55.8526 28.2851 -166.505 -66.785 5.64449 
-54.3081 -54.3081 -55 -55 -79.1296 -55 
-51.0532 -51.0532 -3.89196 -93.0857 -65.2489 12.07 
-44.5659 -44.5659 -55 -65.0846 -75.1473 -55 
-29.9278 -29.9278 -46.527 -49.1853 -111.63 -41.8212 
14.595 14.595 -60.4544 -49.0887 -23.0831 -49.2253 
-55 -55 -82.4683 -48.5849 33.0274 -64.8138 
-55.9403 -55.9403 -1.07339 -58.2443 -55 -85.3676 
-56.3405 -56.3405 -55 -113.414 -113.066 -53.0612 
-55.9586 -55.9586 -41.4579 7.94333 -55.8 -27.9317 
-54.4855 -54.4855 -43.3179 -55 -62.9778 4.88335 
-51.357 -51.357 -5.04427 -115.687 -23.0227 -55 
-45.1499 -45.1499 -55 -11.2262 31.7898 -71.468 
-31.3336 -31.3336 -40.721 -55 -55 -47.4643 
9.62167 9.62167 -55 -167.257 -65.9908 29.0578 
-55 -55 -41.6142 -55 -111.574 -55 
-55.7708 -55.7708 -55 -128.068 -12.19 -19.2092 
-55.9282 -55.9282 -42.3154 -55 -55 -55 
-55.2032 -55.2032 -55 -167.39 -65.7963 9.131 
-53.2026 -53.2026 -42.8658 -55 -111.257 -55 
-49.106 -49.106 -6.52578 -117.187 21.1354 -23.076 
-40.6501 -40.6501 -55 -7.6046 -55 18.1936 
-19.7985 -19.7985 1.25797 -55 -148.471 -55 
-55 -55 -55 -118.701 -55 -24.0835 
-55.1066 -55.1066 -55 -41.0503 -182.048 -55 
-54.291 -54.291 -46.1831 -8.16349 -55 -39.5166 
-52.0767 -52.0767 -15.2697 -55 -112.987 -10.7364 
-47.4317 -47.4317 -55 -119.493 25.9885 -55 
-37.4034 -37.4034 -44.954 21.7214 -55 -38.969 
-10.7976 -10.7976 -11.2698 -55 -115.077 -8.67742 
-55 -55 -55 -121.063 30.6338 -55 
-55.682 -55.682 -55 15.0118 -55 -38.6337 
-55.7113 -55.7113 -1.92927 -55 -150.376 30.4784 
-54.8006 -54.8006 -55 -122.005 -55 -55 
-52.5012 -52.5012 -2.78617 -21.0504 -149.448 -9.29056 
-47.8217 -47.8217 -55 -55 -55 -55 
-37.9038 -37.9038 -55 -148.069 -100.468 -55 
-11.9644 -11.9644 -49.0402 -55 -89.5697 -42.0398 
-55 -55 -26.4308 -120.979 -22.8724 2.61852 
-55.3758 -55.3758 -55 -8.62844 -3.31831 -55 
-54.9588 -54.9588 -46.6936 -55 -55 -41.0856 
-53.3765 -53.3765 24.8618 -171.061 -66.4437 -55 
-49.9212 -49.9212 -55 -55 -78.5935 -78.8098 
-42.7696 -42.7696 -4.56046 -96.6625 -65.1466 -1.37142 
-25.8348 -25.8348 -55 -62.6168 -74.8393 -55 
29.6099 29.6099 -47.0518 -49.792 -111.427 -39.3472 
-55 -55 -62.111 -52.9157 -23.5006 -40.1873 
-56.7428 -56.7428 0.824158 -69.2318 -2.64294 -40.9681 
-58.2604 -58.2604 -55 -75.826 -55 -41.6692 
-59.307 -59.307 0.0851943 -102.483 -145.749 25.7333 
-59.6567 -59.6567 -55 -44.9812 -55 -55 
-59.1573 -59.1573 -1.20481 -63.867 -145.816 -6.09229 
-57.6857 -57.6857 -55 -68.6687 -55 -55 
-54.9823 -54.9823 -2.21747 -97.8636 -145.868 -7.74103 
-50.306 -50.306 -55 -51.7239 -55 -55 
-41.4345 -41.4345 -3.0124 -76.0526 -145.909 -9.0353 
-20.4203 -20.4203 -55 -71.444 -55 -55 
-55 -55 -3.63642 -96.7322 -145.942 -10.0513 
-53.8509 -53.8509 -55 -62.652 -55 -55 
-51.0994 -51.0994 -4.12628 -89.785 -145.967 -10.8489 
-45.3958 -45.3958 -55 -60.8155 -55 -55 
-32.5872 -32.5872 -4.51082 -87.1107 -145.987 -11.4749 
4.70972 4.70972 -55 -63.0858 -55 -55 
-55 -55 -4.81268 -89.0014 -146.003 -11.9664 
-56.1023 -56.1023 -55 -71.6081 -55 -55 
-56.7322 -56.7322 -5.04964 -93.7326 -146.015 -12.3522 
-56.6643 -56.6643 -55 -53.777 -55 -55 
-55.6453 -55.6453 -5.23566 -75.4721 -146.025 -12.6551 
-53.2831 -53.2831 -55 -67.6166 -55 -55 
-48.6845 -48.6845 -5.38168 -91.5954 -146.032 -12.8928 
-39.2622 -39.2622 -55 -56.5218 -55 -55 
-15.4613 -15.4613 -5.49631 -79.6365 -146.038 -13.0795 
-55 -55 -55 -66.522 -55 -55 
-54.8848 -54.8848 -55 -101.563 -180.138 -13.226 
-53.7365 -53.7365 -50.955 -15.6446 -55 -55 
-50.9716 -50.9716 -29.6545 24.7082 -111.488 -51.2238 
-45.2134 -45.2134 -12.1586 -55 -25.3805 -72.0908 
-32.2132 -32.2132 -55 -111.842 -55 -39.4946 
5.92621 5.92621 -2.80234 -45.9892 -146.44 28.4885 
-55 -55 -55 -38.6239 -55 -55 
-56.1882 -56.1882 -55 -56.7668 -180.454 -8.82839 
-56.939 -56.939 -49.0517 -35.9995 -55 -55 
-57.0322 -57.0322 -24.1354 -61.3788 -111.735 -47.7717 
-56.235 -56.235 10.5749 -65.4413 -24.8781 -61.941 
-54.2231 -54.2231 -55 -68.8873 23.8097 -82.9208 
-50.3042 -50.3042 -46.3716 -47.2509 -55 -47.3271 
-42.5633 -42.5633 -15.8725 -90.6201 -114.328 -24.6578 
-24.4197 -24.4197 -55 -62.1022 -19.3244 17.2195 
-55 -55 -45.0722 -40.8496 11.5711 -55 
-54.551 -54.551 29.776 -35.1018 -55 -72.1903 
-52.8945 -52.8945 -55 -57.2 -115.795 -56.0954 
-49.2489 -49.2489 -45.2953 -35.5943 -49.6491 -32.3638 
-41.5685 -41.5685 -56.4796 -9.46442 -54.1584 -10.4714 
-22.8461 -22.8461 -76.2442 -55 -61.7624 -55 
-55 -55 -46.2366 -114.645 -23.1084 -17.9212 
-55.4612 -55.4612 32.7715 -24.6225 -3.87431 -55 
-55.1695 -55.1695 -55 27.0266 -55 -72.562 
-53.7796 -53.7796 3.3835 -55 -148.038 -18.6251 
-50.6671 -50.6671 -55 -118.163 -55 -55 
-44.2833 -44.2833 1.38436 -31.4504 -147.613 -4.41671 
-29.663 -29.663 -55 -1.38814 -55 -55 
15.1617 15.1617 -0.184965 -55 -147.279 -6.42571 
-55 -55 -55 -119.536 -55 -55 
-56.2771 -56.2771 -55 -38.855 -181.112 -8.00277 
-57.1525 -57.1525 -47.2025 -2.66385 -55 -55 
-57.4086 -57.4086 -18.4958 -55 -112.252 -47.1236 
-56.8279 -56.8279 -55 -120.21 24.4383 -7.3102 
-55.1414 -55.1414 -45.5936 23.6507 -55 -55 
-51.8201 -51.8201 -13.3664 -55 -114.519 -46.5423 
-45.4643 -45.4643 -55 -121.619 29.3596 -5.47699 
-31.5712 -31.5712 -44.5852 27.5559 -55 -55 
9.26018 9.26018 -10.0457 -55 -116.244 -46.1774 
-55 -55 -55 -122.711 33.3789 -4.31254 
-55.3788 -55.3788 -55 19.7097 -55 -55 
-54.9663 -54.9663 -1.72227 -55 -151.269 -8.06583 
-53.3909 -53.3909 -55 -123.287 -55 -55 
-49.9482 -49.9482 -2.62367 -17.3187 -150.149 -9.29026 
-42.8251 -42.8251 -55 -55 -55 -55 
-25.9782 -25.9782 -55 -149.068 -101.018 -55 
29.0476 29.0476 -48.9254 -55 -88.9317 -42.0396 
-55 -55 -26.0885 -121.763 -24.0316 2.61925 
-56.7248 -56.7248 -55 -6.42552 -8.50362 -55 
-58.2179 -58.2179 -46.6211 -55 -55 -41.0855 
-59.236 -59.236 25.0916 -171.67 -66.6158 -55 
-59.5557 -59.5557 -55 -55 -78.865 -78.8097 
-59.0243 -59.0243 -4.51495 -97.1405 -65.2007 -1.37136 
-57.511 -57.511 -55 -62.2095 -74.9967 -55 
-54.7377 -54.7377 -47.0161 -49.7571 -111.53 -39.3472 
-49.9149 -49.9149 -61.9989 -53.1931 -23.2878 -40.187 
-40.6647 -40.6647 -84.5541 -59.0477 32.2542 -40.9673 
-18.3472 -18.3472 -85.4825 -67.2535 -55 -41.6671 
-55 -55 -38.1243 -124.019 -112.981 -12.1437 
-53.9344 -53.9344 -55 9.26871 -56.3712 -55 
-51.3156 -51.3156 -38.6654 -55 -97.4817 -35.2305 
-45.873 -45.873 8.75838 -116.593 -8.51268 28.5565 
-33.7618 -33.7618 -55 -9.05911 -55 -55 
0.742959 0.742959 3.84344 -55 -145.838 -6.83815 
-55 -55 -55 -118.245 -55 -55 
-56.0061 -56.0061 -55 -42.2247 -179.981 -8.32653 
-56.4998 -56.4998 -44.3564 -10.9404 -55 -55 
-56.2471 -56.2471 -9.28121 -55 -111.364 -47.3778 
-54.9642 -54.9642 -55 -119.107 22.6227 -8.10316 
-52.1645 -52.1645 -43.8132 20.702 -55 -55 
-46.6671 -46.6671 -7.44888 -55 -113.846 -46.702 
-34.8588 -34.8588 -55 -120.765 27.8563 -5.9834 
-2.15262 -2.15262 -43.4753 25.171 -55 -55 
-55 -55 -6.29695 -55 -115.731 -46.2776 
-55.3621 -55.3621 -55 -133.034 -1.93659 -4.63334 
-54.9251 -54.9251 -43.2653 -55 -55 -55 
-53.3117 -53.3117 -55 -171.288 -68.0656 6.60749 
-49.8003 -49.8003 -43.6115 -55 -114.765 -55 
-42.5201 -42.5201 -9.09165 -120.247 30.0193 -25.0569 
-25.1862 -25.1862 -55 0.343567 -55 8.33904 
32.1739 32.1739 0.795287 -55 -150.057 -55 
-55 -55 -55 -121.062 -55 -25.2367 
-56.8246 -56.8246 -55 -34.6989 -183.293 -55 
-58.4533 -58.4533 -46.51 8.84729 -55 -40.4218 
-59.628 -59.628 -16.3132 -55 -113.964 -14.0881 
-60.1086 -60.1086 -55 -121.562 28.1174 -55 
-59.7436 -59.7436 -45.1589 27.3956 -55 -39.5248 
-58.4393 -58.4393 -11.9449 -55 -115.821 -10.7672 
-56.0108 -56.0108 -55 -122.667 32.3712 -55 
-51.8984 -51.8984 -44.3136 30.5665 -55 -38.9741 
-44.4422 -44.4422 -9.13752 -55 -117.239 -8.6965 
-28.0619 -28.0619 -55 -123.527 -55 -55 
22.8668 22.8668 0.30039 -16.6045 -150.738 -8.55168 
-55 -55 -55 -55 -55 -55 
-55.0515 -55.0515 -55 -160.241 -135.575 -55 
-54.1536 -54.1536 -46.8596 -55 30.3499 -41.5178 
-51.805 -51.805 -19.7493 -121.636 -55 4.47571 
-46.895 -46.895 -55 -45.5077 -116.893 -55 
-36.1831 -36.1831 -45.32 -21.7788 -47.0053 -40.7632 
-7.05822 -7.05822 -56.5604 33.9583 -49.3789 -45.4201 
-55 -55 -76.3832 -55 -53.7217 -55.558 
-55.7954 -55.7954 -55 -133.316 -46.9797 -21.1269 
-55.9882 -55.9882 -41.0953 -55 -80.7802 -55 
-55.314 -55.314 -0.255548 -121.803 -28.3684 -21.7339 
-53.3935 -53.3935 -55 4.67273 10.3388 25.0484 
-49.4491 -49.4491 -41.7349 -55 -55 -55 
-41.3616 -41.3616 -55 -171.976 -65.6304 6.77836 
-21.73 -21.73 -42.4101 -55 -110.985 -55 
-55 -55 -4.93592 -120.787 20.4779 -24.9228 
-55.0395 -55.0395 -55 -9.16172 -55 8.99639 
-54.1236 -54.1236 1.54017 -55 -148.356 -55 
-51.7454 -51.7454 -55 -121.205 -55 -25.1584 
-46.7766 -46.7766 -0.0626591 -23.3124 -147.862 -55 
-35.9106 -35.9106 -55 27.2253 -55 -78.2432 
-6.2073 -6.2073 -1.32088 -55 -147.475 -23.5552 
-55 -55 -55 -122.369 -55 -55 
-55.8212 -55.8212 -55 -30.9899 -181.266 -8.30722 
-56.0511 -56.0511 -48.005 20.3294 -55 -55 
-55.4297 -55.4297 -20.9769 -55 -112.373 -47.3626 
-53.5918 -53.5918 -55 -122.764 24.6897 -8.05601 
-49.8023 -49.8023 -46.0986 30.8481 -55 -55 
-42.0846 -42.0846 -14.9986 -55 -114.611 -46.6925 
-23.6513 -23.6513 -55 -123.602 29.5668 -5.95324 
-55 -55 -44.9011 33.3264 -55 -55 
-54.9723 -54.9723 -55 -55 -150.409 -46.2716 
-53.9558 -53.9558 -3.13803 -100.851 -55 33.2686 
-51.4114 -51.4114 -55 -108.133 -115.453 -55 
-46.1074 -46.1074 -45.9352 -15.302 -50.4533 -39.157 
-34.3513 -34.3513 -58.5596 -55 -55.4947 -39.4721 
-1.22295 -1.22295 -37.8977 -121.812 -15.4053 13.8123 
-55 -55 -33.393 4.69698 -55 -55 
-55.9722 -55.9722 -55 -55 -148.533 -45.8518 
-56.4177 -56.4177 0.405082 -98.8696 -55 34.6185 
-56.0986 -56.0986 -55 -110.29 -113.98 -55 
-54.7186 -54.7186 -43.1538 -7.84383 -53.8067 -38.8941 
-51.7523 -51.7523 -49.2798 -55 -60.4742 -38.479 
-45.8991 -45.8991 -20.0648 -120.69 -21.0594 16.8808 
-33.0972 -33.0972 33.9921 1.55625 -55 -55 
3.60669 3.60669 -55 -55 -113.274 -45.7837 
-55 -55 -0.277038 -97.9986 -7.1013 34.8387 
-55.5634 -55.5634 -55 -72.4177 -55 -55 
-55.4208 -55.4208 0.397634 -106.414 -148.159 -8.76645 
-54.256 -54.256 -55 -39.5587 -55 -55 
-51.5327 -51.5327 -0.959547 -53.0252 -147.708 -9.84025 
-45.9857 -45.9857 -55 -57.4673 -55 -55 
-33.7514 -33.7514 -2.02493 -90.2831 -147.353 -10.6832 
1.02532 1.02532 -55 -66.3715 -55 -55 
-55 -55 -2.86126 -97.7078 -147.075 -11.3449 
-55.8125 -55.8125 -55 -64.1476 -55 -55 
-56.03 -56.03 -3.51778 -94.0554 -146.857 -11.8643 
-55.3908 -55.3908 -55 -57.5919 -55 -55 
-53.5253 -53.5253 -4.03315 -85.2313 -146.686 -12.2721 
-49.6842 -49.6842 -55 -66.8209 -55 -55 
-41.8438 -41.8438 -4.43771 -93.9004 -146.551 -12.5922 
-23.0162 -23.0162 -55 -55.7893 -55 -55 
-55 -55 -4.75529 -80.7608 -146.446 -12.8434 
-54.9946 -54.9946 -55 -79.0637 -55 -55 
-54.0114 -54.0114 -5.00459 -94.5856 -146.363 -13.0407 
-51.5223 -51.5223 -55 -53.2312 -55 -55 
-46.3306 -46.3306 -5.20029 -75.1976 -146.298 -13.1955 
-34.8752 -34.8752 -55 -68.2353 -55 -55 
-2.91933 -2.91933 -5.35392 -92.5027 -146.247 -13.3171 
-55 -55 -55 -55.7703 -55 -55 
-55.9208 -55.9208 -55 -89.9029 -180.302 -13.4125 
-56.2932 -56.2932 -50.8544 -35.4836 -55 -55 
-55.8726 -55.8726 -29.37 -54.4935 -111.616 -51.3703 
-54.3417 -54.3417 -11.0445 -51.3162 -25.1208 -72.5002 
-51.1109 -51.1109 -55 -46.0241 22.9327 -92.3171 
-44.6773 -44.6773 -46.8596 -11.8414 -55 -40.1197 
-30.1981 -30.1981 -17.4198 -55 -114.224 -8.4396 
13.6264 13.6264 -55 -112.127 28.696 -55 
-55 -55 -45.3782 4.30404 -55 -35.7775 
-55.9074 -55.9074 -55 -55 -150.114 3.80205 
-56.2607 -56.2607 -3.51256 -92.0179 -55 -55 
-55.8133 -55.8133 -55 -115.329 -115.221 -44.4886 
-54.2422 -54.2422 -46.2292 12.7777 -50.9917 -13.5206 
-50.9399 -50.9399 -59.5044 -55 -56.3589 -55 
-44.3461 -44.3461 -39.3354 -116.735 -16.5469 -21.9915 
-29.3916 -29.3916 -37.7617 -8.71356 -55 23.7216 
16.5335 16.5335 12.2617 -55 -114.247 -55 
-55 -55 -55 -118.354 28.7458 -23.4556 
-56.006 -56.006 -55 7.76089 -55 -55 
-56.4995 -56.4995 0.438719 -55 -149.742 -8.9385 
-56.2465 -56.2465 -55 -119.91 -55 -55 
-54.9632 -54.9632 -0.927294 -26.8677 -148.951 -9.97531 
-52.1628 -52.1628 -55 14.0465 -55 -55 
-46.6641 -46.6641 -1.99961 -55 -148.329 -10.7892 
-34.8518 -34.8518 -55 -121.136 -55 -55 
-2.13037 -2.13037 -2.84139 -23.507 -147.841 -11.4281 
-55 -55 -55 26.4767 -55 -55 
-55.3629 -55.3629 -55 -55 -181.554 -11.9297 
-54.9271 -54.9271 -7.3217 -98.8952 -55 -55 
-53.3155 -53.3155 -55 -110.264 -112.599 -50.2062 
-49.8072 -49.8072 -49.2194 -7.93687 -56.7944 -31.3151 
-42.5345 -42.5345 -68.7203 -55 -64.0985 -15.3185 
-25.2237 -25.2237 -49.7099 -120.704 -23.6951 -55 
32.0246 32.0246 -64.9388 1.59627 29.3595 -77.3016 
-55 -55 -84.6782 -55 -55 -90.8846 
-56.8198 -56.8198 -55 -182.108 -99.7287 4.24255 
-58.4421 -58.4421 -39.6817 -55 -90.0387 -55 
-59.6095 -59.6095 4.93099 -119.842 -21.4216 -21.3212 
-60.0826 -60.0826 -55 -0.749845 -55 27.1855 
-59.7103 -59.7103 3.22113 -55 -147.091 -55 
-58.3972 -58.3972 -55 -120.749 -55 -23.0686 
-55.9546 -55.9546 1.2569 -24.5816 -146.869 -55 
-51.8135 -51.8135 -55 22.4002 -55 -76.6027 
-44.287 -44.287 -0.285024 -55 -146.695 -22.3967 
-27.6854 -27.6854 -55 -121.929 -55 -55 
24.2786 24.2786 -1.49543 -21.2674 -146.559 -7.17716 
-55 -55 -55 -55 -55 -55 
-55.1012 -55.1012 -55 -158.995 -132.295 -55 
-54.2777 -54.2777 -48.1283 -55 17.8354 -40.5467 
-52.0504 -52.0504 -23.683 -120.658 -55 7.98857 
-47.38 -47.38 -55 -48.2371 -114.262 -55 
-37.2868 -37.2868 -46.118 -27.1531 -53.1771 -40.1649 
-10.4452 -10.4452 -59.148 12.9903 -59.6126 -43.2288 
-55 -55 -80.5589 -55 -68.4956 -49.7107 
-55.6927 -55.6927 -55 -132.056 -61.3307 -10.2968 
-55.7374 -55.7374 -41.4401 -55 -102.482 -55 
-54.8494 -54.8494 -1.49638 -120.814 2.87064 -21.8382 
-52.5868 -52.5868 -55 1.89887 -55 24.5104 
-47.9805 -47.9805 2.13947 -55 -144.884 -55 
-38.2502 -38.2502 -55 -121.501 -55 -23.367 
-12.9858 -12.9858 0.407793 -22.4818 -145.137 -55 
-55 -55 -55 30.4553 -55 -76.8369 
-55.341 -55.341 -55 -55 -179.43 -22.5753 
-54.8727 -54.8727 -5.02616 -99.2501 -55 -55 
-53.2109 -53.2109 -55 -109.9 -110.932 -45.2211 
-49.6112 -49.6112 -47.4174 -9.23721 -60.1966 -15.9463 
-42.1277 -42.1277 -63.252 -55 -67.2822 -55 
-24.1563 -24.1563 -44.3521 -120.906 -24.8037 -22.4484 
-55 -55 -51.8143 2.15287 26.0746 21.3814 
-55.276 -55.276 19.187 -55 -55 -55 
-54.7119 -54.7119 -55 -171.279 -64.5413 6.36528 
-52.8998 -52.8998 -41.8536 -55 -109.141 -55 
-49.0233 -49.0233 -2.97196 -120.24 16.1604 -25.2471 
-40.8898 -40.8898 -55 0.323958 -55 7.40969 
-20.8275 -20.8275 1.8842 -55 -147.597 -55 
-55 -55 -55 -121.056 -55 -25.3478 
-55.3771 -55.3771 -55 -34.7144 -181.362 -55 
-54.9622 -54.9622 -45.7406 8.80154 -55 -40.509 
-53.383 -53.383 -13.8437 -55 -112.448 -14.4075 
-49.9333 -49.9333 -55 -121.557 24.8471 -55 
-42.7945 -42.7945 -44.6771 27.3813 -55 -39.5784 
-25.899 -25.899 -10.3518 -55 -114.668 -10.9676 
29.3578 29.3578 -55 -122.663 29.6964 -55 
-55 -55 -44.013 30.555 -55 -39.007 
-56.7347 -56.7347 -55 -55 -150.453 -8.82081 
-58.2414 -58.2414 -2.44087 -100.118 -55 -55 
-59.2752 -59.2752 -55 -108.967 -115.487 -46.4547 
-59.6115 -59.6115 -45.3879 -12.4868 -50.3734 -19.9345 
-59.0979 -59.0979 -56.7826 -55 -55.3644 32.5802 
-57.6078 -57.6078 -35.0046 -121.397 -15.2274 -55 
-54.8736 -54.8736 -24.1287 3.52495 -55 -76.3697 
-50.1327 -50.1327 -55 -55 -114.466 -60.0976 
-41.0949 -41.0949 0.385578 -98.5475 -4.46624 11.5623 
-19.5116 -19.5116 -55 -60.9045 -55 -55 
-55 -55 0.917787 -99.1643 -149.067 -6.25532 
-53.8876 -53.8876 -55 -67.3367 -55 -55 
-51.1946 -51.1946 -0.551226 -101.709 -148.421 -7.86901 
-45.6063 -45.6063 -55 -48.2642 -55 -55 
-33.1075 -33.1075 -1.7044 -72.7839 -147.913 -9.13576 
2.93919 2.93919 -55 -74.6656 -55 -55 
-55 -55 -2.60964 -100.352 -147.515 -10.1302 
-56.0593 -56.0593 -55 -58.561 -55 -55 
-56.6283 -56.6283 -3.32026 -87.4371 -147.202 -10.9108 
-56.4782 -56.4782 -55 -65.6009 -55 -55 
-55.3432 -55.3432 -3.87809 -93.6895 -146.956 -11.5235 
-52.7913 -52.7913 -55 -56.7192 -55 -55 
-47.8096 -47.8096 -4.31599 -82.712 -146.764 -12.0046 
-37.3924 -37.3924 -55 -67.5047 -55 -55 
-9.99989 -9.99989 -4.65974 -93.3802 -146.612 -12.3822 
-55 -55 -55 -55.6938 -55 -55 
-55.083 -55.083 -55 -90.8279 -180.589 -12.6786 
-54.2323 -54.2323 -50.3639 -35.2871 -55 -55 
-51.9607 -51.9607 -27.9717 -54.6939 -111.842 -50.7941 
-47.2032 -47.2032 -5.4767 -52.3893 -24.6612 -70.8794 
-36.8866 -36.8866 -55 -48.6776 24.5981 -91.4357 
-9.22835 -9.22835 -46.7184 -18.2836 -55 -40.9433 
-55 -55 -16.9741 9.21653 -114.42 -10.4028 
-55.7296 -55.7296 -55 -55 -53.2126 -55 
-55.8277 -55.8277 -3.53207 -90.6131 -45.2525 17.1584 
-55.0171 -55.0171 -55 -66.1921 -42.6801 -55 
-52.8799 -52.8799 -46.2445 -48.0738 -69.5612 -37.8267 
-48.5198 -48.5198 -59.5534 -44.9695 -76.1237 -34.3896 
-39.4126 -39.4126 -81.1657 -37.798 -76.2867 -22.2835 
-16.3432 -16.3432 -87.1292 -18.5003 -75.2342 24.0943 
-55 -55 -80.371 -55 -74.361 -55 
-55.2259 -55.2259 -55 -127.204 -59.3732 -22.1561 
-54.5878 -54.5878 -37.288 -55 -96.771 -55 
-52.6585 -52.6585 14.0778 -117.005 -5.35389 -23.2674 
-48.562 -48.562 -55 -8.05302 -55 17.2277 
-39.8996 -39.8996 4.6836 -55 -142.355 -55 
-18.0771 -18.0771 -55 -118.561 -55 -24.1946 
-55 -55 2.40494 -30.4267 -143.152 -55 
-55.4608 -55.4608 -55 -9.0775 -55 -77.4866 
-55.1684 -55.1684 0.616186 -55 -143.777 -23.0477 
-53.7775 -53.7775 -55 -119.62 -55 -55 
-50.6633 -50.6633 -0.787983 -27.6453 -144.268 -7.78541 
-44.2757 -44.2757 -55 11.3041 -55 -55 
-29.6441 -29.6441 -1.89026 -55 -144.653 -9.07013 
15.23 15.23 -55 -120.865 -55 -55 
-55 -55 -2.75554 -24.2589 -144.956 -10.0786 
-56.2793 -56.2793 -55 12.6289 -55 -55 
-57.1578 -57.1578 -3.43479 -55 -145.193 -10.8703 
-57.418 -57.418 -55 -121.766 -55 -55 
-56.8425 -56.8425 -3.968 -21.731 -145.379 -11.4918 
-55.1637 -55.1637 -55 33.4238 -55 -55 
-51.856 -51.856 -4.38657 -55 -145.526 -11.9796 
-45.5308 -45.5308 -55 -122.916 -55 -55 
-31.7273 -31.7273 -4.71514 -18.4114 -145.641 -12.3626 
8.72123 8.72123 -55 -55 -55 -55 
-55 -55 -55 -148.779 -97.4789 -55 
-55.3598 -55.3598 -55 -55 -126.708 -44.2102 
-54.9194 -54.9194 -9.85426 -98.1299 -55 33.0135 
-53.3007 -53.3007 -55 -111.015 -110.907 -55 
-49.7796 -49.7796 -51.2074 -5.19559 -60.2464 -43.3788 
-42.4772 -42.4772 -74.4517 -55 -67.3213 -54.6646 
-25.0743 -25.0743 -52.8359 -120.269 -24.8087 -23.45 
32.6197 32.6197 -72.1337 0.404894 26.0727 15.8138 
-55 -55 -89.4557 -55 -55 -55 
-56.8388 -56.8388 -55 -181.771 -98.6218 5.39559 
-58.4867 -58.4867 -40.2565 -55 -91.1832 -55 
-59.6834 -59.6834 2.80264 -119.578 -19.1234 -26.0083 
-60.1857 -60.1857 -55 -1.45818 -55 3.718 
-59.8421 -59.8421 2.86821 -55 -146.419 -55 
-58.5634 -58.5634 -55 -120.544 -55 -25.7933 
-56.1761 -56.1761 0.979856 -25.1447 -146.342 -55 
-52.1465 -52.1465 -55 20.302 -55 -78.7416 
-44.8924 -44.8924 -0.502502 -55 -146.281 -23.8645 
-29.1431 -29.1431 -55 -121.734 -55 -55 
18.875 18.875 -1.66615 -21.8232 -146.233 -8.65162 
-55 -55 -55 33.0568 -55 -55 
-54.9099 -54.9099 -55 -55 -180.292 -9.75011 
-53.7995 -53.7995 -6.4914 -99.4779 -55 -55 
-51.0983 -51.0983 -55 -109.661 -111.608 -48.4953 
-45.4724 -45.4724 -48.5676 -10.0812 -58.8435 -26.2645 
-32.8392 -32.8392 -66.7724 -55 -66.1373 4.69575 
3.79543 3.79543 -48.0679 -121.035 -24.5557 -55 
-55 -55 -61.097 2.51163 26.5839 -76.8277 
-56.1239 -56.1239 4.85632 -55 -55 -90.5363 
-56.7842 -56.7842 -55 -171.379 -64.9556 4.17689 
-56.7571 -56.7571 -41.7395 -55 -109.853 -55 
-55.795 -55.795 -2.5661 -120.318 17.802 -21.026 
-53.5242 -53.5242 -55 0.538132 -55 28.7221 
-49.1066 -49.1066 1.95468 -55 -147.885 -55 
-40.1425 -40.1425 -55 -121.117 -55 -22.8985 
-17.9357 -17.9357 0.262736 -23.5594 -147.493 -55 
-55 -55 -55 26.2759 -55 -76.4691 
-54.7938 -54.7938 -55 -55 -181.28 -22.2929 
-53.5077 -53.5077 -5.12864 -98.877 -55 -55 
-50.5089 -50.5089 -55 -110.282 -112.384 -44.9683 
-44.2569 -44.2569 -47.4978 -7.87094 -57.2454 -15.114 
-29.8561 -29.8561 -63.5017 -55 -64.5786 -55 
14.2296 14.2296 -44.6474 -120.694 -23.9415 -22.2906 
-55 -55 -52.5854 1.56791 28.5092 22.1878 
-56.4382 -56.4382 17.7423 -55 -55 -55 
-57.5377 -57.5377 -55 -171.114 -65.4779 6.4566 
-58.0791 -58.0791 -41.8311 -55 -110.732 -55 
-57.8577 -57.8577 -2.8918 -120.111 19.8732 -25.1754 
-56.673 -56.673 -55 -0.0257511 -55 7.75974 
-54.2031 -54.2031 1.89814 -55 -148.249 -55 
-49.657 -49.657 -55 -120.956 -55 -25.3059 
-40.716 -40.716 0.218347 -24.0066 -147.778 -55 
-19.0089 -19.0089 -55 24.5695 -55 -78.359 
-55 -55 -1.10029 -55 -147.409 -23.6288 
-54.3386 -54.3386 -55 -133.114 -55 -55 
-52.354 -52.354 -2.13541 25.5474 -147.119 -8.3872 
-48.1146 -48.1146 -55 -55 -55 -55 
-39.0437 -39.0437 -55 -149.074 -98.6393 -55 
-15.7439 -15.7439 -48.5805 -55 -91.5158 -41.4016 
-55 -55 -25.0538 -121.768 -19.0171 4.89208 
-55.619 -55.619 -55 -6.41187 14.6941 -55 
-55.5571 -55.5571 -46.4032 -55 -55 -40.6915 
-54.5124 -54.5124 25.7842 -171.674 -65.895 -55 
-51.9914 -51.9914 -55 -55 -77.7119 -78.5005 
-46.8643 -46.8643 -4.37836 -97.1435 -64.9382 -1.18347 
-35.7718 -35.7718 -55 -62.2069 -74.3076 -55 
-5.46704 -5.46704 -46.9088 -49.7568 -111.085 -39.1334 
-55 -55 -61.6619 -53.1946 -24.2144 -39.383 
-55.5956 -55.5956 1.40751 -70.0375 -5.32184 -38.5346 
-55.4998 -55.4998 -55 -76.4492 -55 -34.6759 
-54.4047 -54.4047 0.151402 -102.656 -145.47 -55 
-51.7994 -51.7994 -55 -44.7911 -55 -73.5867 
-46.4986 -46.4986 -1.15284 -63.5765 -145.597 -19.7052 
-34.9382 -34.9382 -55 -68.5622 -55 -55 
-2.82804 -2.82804 -2.17667 -97.9565 -145.696 -5.11369 
-55 -55 -55 -51.6889 -55 -55 
-55.6841 -55.6841 -55 -87.092 -179.87 -6.97283 
-55.7165 -55.7165 -48.6096 -42.3416 -55 -55 
-54.8104 -54.8104 -22.8122 -77.8029 -111.277 -46.3151 
-52.5183 -52.5183 16.3766 -70.8109 -25.8043 -57.3723 
-47.8534 -47.8534 -55 -69.8656 20.4901 -76.1694 
-37.9731 -37.9731 -46.2653 -45.7797 -55 -48.867 
-12.1696 -12.1696 -15.5331 -85.5229 -113.932 -27.3176 
-55 -55 -55 -65.8991 -20.2061 7.4183 
-55.3688 -55.3688 -55 -53.9233 -26.1099 -55 
-54.9415 -54.9415 -46.7541 -28.3687 -16.6542 -33.4942 
-53.3433 -53.3433 -61.1739 17.2374 -55 -16.8551 
-49.8593 -49.8593 -39.3762 -55 -114.81 -55 
-42.6419 -42.6419 3.55058 -113.989 30.0212 -19.8252 
-25.5035 -25.5035 -55 -15.1108 -55 -55 
30.9153 30.9153 1.42845 -55 -150.173 -6.08866 
-55 -55 -55 -116.254 -55 -55 
-56.7844 -56.7844 -55 -47.1638 -183.384 -7.73819 
-58.3587 -58.3587 -46.0626 -21.3517 -55 -55 
-59.471 -59.471 -14.883 -10.0783 -114.035 -46.9159 
-59.8885 -59.8885 -55 -55 -19.9772 -59.2773 
-59.46 -59.46 -3.12105 -94.7196 -55 11.3195 
-58.0779 -58.0779 -55 -113.79 -114.669 -55 
-55.5231 -55.5231 -45.9219 5.7875 -52.2601 -37.3634 
-51.1537 -51.1537 -58.5166 -55 -58.2969 -32.5862 
-43.061 -43.061 -37.8307 -118.313 -18.8647 -55 
-24.6432 -24.6432 -33.1854 -4.7662 -55 -74.7845 
-55 -55 26.8683 -55 -113.803 -58.7441 
-53.6774 -53.6774 -55 -130.553 -6.33483 -23.3891 
-50.6484 -50.6484 -41.9129 -55 -55 -55 
-44.3893 -44.3893 -55 -169.34 -66.5936 10.3321 
-30.0515 -30.0515 -42.5499 -55 -112.537 -55 
13.6455 13.6455 -5.42537 -118.718 24.2855 -22.1331 
-55 -55 -55 -3.72101 -55 22.9943 
-56.322 -56.322 -55 -55 -183.124 -55 
-57.2601 -57.2601 -2.86146 -96.4736 -55 14.3454 
-57.5971 -57.5971 -55 -112.479 -113.831 -55 
-57.1208 -57.1208 -45.7181 0.409541 -54.1358 -40.0349 
-55.5851 -55.5851 -57.8575 -55 -60.9111 -42.7488 
-52.5291 -52.5291 -36.7842 -119.323 -21.4461 4.23945 
-46.7586 -46.7586 -29.9023 -2.13383 -55 -55 
-34.5443 -34.5443 -55 -55 -113.163 -46.0969 
-0.667315 -0.667315 0.402785 -96.941 -7.34137 33.8285 
-55 -55 -55 -62.3817 -55 -55 
-55.0244 -55.0244 -55 -110.467 -182.17 -8.96252 
-54.086 -54.086 -45.0891 -4.81346 -55 -55 
-51.6708 -51.6708 -11.7154 -55 -113.082 -47.877 
-46.6277 -46.6277 -55 -118.713 26.1928 -9.64574 
-35.5669 -35.5669 -44.27 19.6736 -55 -55 
-5.12507 -5.12507 -8.99135 -55 -115.15 -47.0162 
-55 -55 -55 -120.462 30.8011 -6.97338 
-55.854 -55.854 -55 13.3506 -55 -55 
-56.1309 -56.1309 -1.54561 -55 -150.432 -8.59191 
-55.5762 -55.5762 -55 -121.539 -55 -55 
-53.8415 -53.8415 -2.48499 -22.3764 -149.492 -9.70324 
-50.2428 -50.2428 -55 30.869 -55 -55 
-42.9724 -42.9724 -3.22241 -55 -148.754 -10.5756 
-25.9534 -25.9534 -55 -122.693 -55 -55 
29.5113 29.5113 -3.80128 -19.0644 -148.175 -11.2605 
-55 -55 -55 -55 -55 -55 
-56.4401 -56.4401 -55 -159.59 -133.564 -55 
-57.5422 -57.5422 -49.7574 -55 22.5731 -43.4315 
-58.087 -58.087 -28.5451 -121.125 -55 -2.22631 
-57.8696 -57.8696 -55 -46.9436 -115.277 -55 
-56.6902 -56.6902 -47.1474 -24.6832 -50.8618 -41.9477 
-54.2288 -54.2288 -62.4106 22.3266 -56.1526 -49.6744 
-49.6999 -49.6999 -85.0786 -55 -64.5324 -65.8311 
-40.8023 -40.8023 -43.3956 -121.653 -25.3286 -33.6144 
-19.2436 -19.2436 -46.7141 4.24746 21.6362 -18.9799 
-55 -55 -53.4123 -55 -55 -55 
-54.3295 -54.3295 -55 -182.844 -100.41 8.91742 
-52.3307 -52.3307 -38.1912 -55 -89.2849 -55 
-48.0653 -48.0653 10.5726 -120.421 -22.841 -23.2436 
-38.9316 -38.9316 -55 0.817455 31.225 17.3475 
-15.4169 -15.4169 -39.9538 -55 -55 -55 
-55 -55 -55 -170.903 -67.0513 5.90426 
-55.6264 -55.6264 -55 -55 -147.343 -55 
-55.5753 -55.5753 -1.40226 -96.5381 -55 12.2739 
-54.5465 -54.5465 -55 -112.426 -113.466 -55 
-52.052 -52.052 -44.5726 0.200396 -54.9367 -41.6611 
-46.9793 -46.9793 -54.0908 -55 -61.9354 -48.6553 
-36.0316 -36.0316 -30.1518 -119.36 -22.2805 -10.881 
-6.27832 -6.27832 -7.15054 -2.03597 34.5985 -55 
-55 -55 -55 -55 -55 -76.7051 
-55.5683 -55.5683 -55 -157.661 -134.122 30.1436 
-55.4328 -55.4328 -43.5933 -55 24.7 -55 
-54.2787 -54.2787 -9.02954 -119.611 -55 -23.9121 
-51.5735 -51.5735 -55 -51.0761 -115.725 -55 
-46.0645 -46.0645 -43.2803 -32.0869 -49.8139 -39.382 
-33.9351 -33.9351 -49.7153 -4.11033 -54.4366 -40.3175 
0.421498 0.421498 -62.8101 -55 -62.1698 -41.3575 
-55 -55 -39.1003 -119.876 -23.4781 9.87448 
-55.7925 -55.7925 -55 -11.646 -5.34403 -55 
-55.9811 -55.9811 -39.3091 -55 -55 -36.8774 
-55.3008 -55.3008 -55 -170.206 -65.9861 -55 
-53.3707 -53.3707 -40.5058 -55 -111.566 -37.6235 
-49.4083 -49.4083 1.88768 -119.398 21.8868 19.0182 
-41.2774 -41.2774 -55 -1.9376 -55 -55 
-21.5037 -21.5037 2.71493 -55 -148.604 -8.29039 
-55 -55 -55 -120.405 -55 -55 
-55.0473 -55.0473 -55 -36.5116 -182.152 -9.46654 
-54.1432 -54.1432 -45.1537 3.65024 -55 -55 
-51.7845 -51.7845 -11.9279 -55 -113.069 -48.2727 
-46.8542 -46.8542 -55 -120.973 26.1634 -10.8541 
-36.0893 -36.0893 -44.3104 25.7468 -55 -55 
-6.76613 -6.76613 -9.12669 -55 -115.139 -47.2655 
-55 -55 -55 -122.21 30.7771 -7.75345 
-55.8043 -55.8043 -55 18.2581 -55 -55 
-56.0098 -56.0098 -1.5682 -55 -150.424 -8.74856 
-55.3538 -55.3538 -55 -122.897 -55 -55 
-53.4618 -53.4618 -2.50273 -18.4691 -149.486 -9.8262 
-49.571 -49.571 -55 -55 -55 -55 
-41.6123 -41.6123 -55 -148.763 -100.497 -55 
-22.401 -22.401 -48.84 -55 -89.5364 -42.4182 
-55 -55 -25.8331 -121.524 -22.934 1.2858 
-55.016 -55.016 -55 -7.10238 -3.59685 -55 
-54.0651 -54.0651 -46.5671 -55 -55 -41.3196 
-51.6293 -51.6293 25.2629 -171.484 -66.4528 -55 
-46.5449 -46.5449 -55 -55 -78.6078 -78.9935 
-35.3747 -35.3747 -4.48109 -96.9947 -65.1496 -1.47942 
-4.51608 -4.51608 -55 -62.3357 -74.8477 -55 
-55 -55 -46.9895 -49.7711 -111.433 -39.4743 
-55.8725 -55.8725 23.6069 -64.1005 -57.5847 -40.6635 
-56.1758 -56.1758 -55 -73.2214 -62.5075 -42.3852 
-55.6583 -55.6583 -46.4957 -53.5406 -101.7 -7.64214 
-53.9807 -53.9807 -60.3548 -57.6154 -45.2346 -55 
-50.4864 -50.4864 -82.3275 -63.5046 -36.8929 -74.3451 
-43.4568 -43.4568 -86.6595 -69.808 -14.3819 -88.4185 
-27.183 -27.183 -80.9305 -73.4185 -55 -79.0312 
24.7611 24.7611 -38.5712 -123.408 -109.692 -53.1645 
-55 -55 -29.053 20.6475 -28.8774 -62.9623 
-56.2822 -56.2822 -55 -55 -24.0781 -75.2051 
-57.1648 -57.1648 5.43164 -91.2381 -55 10.6763 
-57.4303 -57.4303 -55 -115.665 -111.741 -55 
-56.8618 -56.8618 -39.208 14.4767 -58.5732 -29.5019 
-55.193 -55.193 -35.053 -55 -65.8892 0.631596 
-51.9033 -51.9033 20.4022 -116.274 -24.4781 -55 
-45.6182 -45.6182 -55 -9.82913 26.8006 -70.0608 
-31.9318 -31.9318 -40.1125 -55 -55 -45.721 
8.0184 8.0184 -55 -167.707 -65.0412 34.1243 
-55 -55 -41.1365 -55 -109.999 -55 
